(const nomodify byte*) COLORS = (byte*) 55296
(const nomodify byte) CRAM2K = (byte) 1
(byte) DMA_LIST_F018A::command
(word) DMA_LIST_F018A::count
(byte*) DMA_LIST_F018A::dest
(byte) DMA_LIST_F018A::dest_bank
(word) DMA_LIST_F018A::modulo
(byte*) DMA_LIST_F018A::src
(byte) DMA_LIST_F018A::src_bank
(byte) DMA_LIST_F018B::command
(word) DMA_LIST_F018B::count
(byte*) DMA_LIST_F018B::dest
(byte) DMA_LIST_F018B::dest_bank
(word) DMA_LIST_F018B::modulo
(byte*) DMA_LIST_F018B::src
(byte) DMA_LIST_F018B::src_bank
(byte) DMA_LIST_F018B::sub_command
(byte) F018_DMAGIC::ADDRBANK
(byte) F018_DMAGIC::ADDRLSB
(byte) F018_DMAGIC::ADDRLSBTRIG
(byte) F018_DMAGIC::ADDRMB
(byte) F018_DMAGIC::ADDRMSB
(byte) F018_DMAGIC::EN018B
(byte) F018_DMAGIC::ETRIG
(byte) F018_DMAGIC::MISC
(const byte*) F018_DMAGIC::UNUSED1[(number) 8]  = { fill( 8, 0) }
(byte) F018_DMAGIC::UNUSED2
(const nomodify to_volatile byte*) IO_BANK = (byte*) 53296
(const nomodify to_volatile byte*) IO_KEY = (byte*) 53295
(byte) MEGA65_VICIV::ALPHADELAY
(byte) MEGA65_VICIV::B0PIX
(byte) MEGA65_VICIV::B0_ADDR
(byte) MEGA65_VICIV::B1PIX
(byte) MEGA65_VICIV::B1_ADDR
(byte) MEGA65_VICIV::B2PIX
(byte) MEGA65_VICIV::B2_ADDR
(byte) MEGA65_VICIV::B3PIX
(byte) MEGA65_VICIV::B3_ADDR
(byte) MEGA65_VICIV::B4PIX
(byte) MEGA65_VICIV::B4_ADDR
(byte) MEGA65_VICIV::B5PIX
(byte) MEGA65_VICIV::B5_ADDR
(byte) MEGA65_VICIV::B6PIX
(byte) MEGA65_VICIV::B6_ADDR
(byte) MEGA65_VICIV::B7PIX
(byte) MEGA65_VICIV::B7_ADDR
(byte) MEGA65_VICIV::BBDRPOS_HI
(byte) MEGA65_VICIV::BBDRPOS_LO
(byte) MEGA65_VICIV::BG_COLOR
(byte) MEGA65_VICIV::BG_COLOR1
(byte) MEGA65_VICIV::BG_COLOR2
(byte) MEGA65_VICIV::BG_COLOR3
(byte) MEGA65_VICIV::BORDER_COLOR
(byte) MEGA65_VICIV::BP16ENS
(byte) MEGA65_VICIV::BPCOMP
(byte) MEGA65_VICIV::BPX
(byte) MEGA65_VICIV::BPY
(byte) MEGA65_VICIV::CHARPTR_HILO
(byte) MEGA65_VICIV::CHARPTR_LOHI
(byte) MEGA65_VICIV::CHARPTR_LOLO
(byte) MEGA65_VICIV::CHARSTEP_HI
(byte) MEGA65_VICIV::CHARSTEP_LO
(byte) MEGA65_VICIV::CHRCOUNT
(byte) MEGA65_VICIV::CHRXSCL
(byte) MEGA65_VICIV::CHRYSCL
(byte) MEGA65_VICIV::COLPTR_HI
(byte) MEGA65_VICIV::COLPTR_LO
(byte) MEGA65_VICIV::CONTROL1
(byte) MEGA65_VICIV::CONTROL2
(byte) MEGA65_VICIV::CONTROLA
(byte) MEGA65_VICIV::CONTROLB
(byte) MEGA65_VICIV::CONTROLC
(byte) MEGA65_VICIV::DEBUG1
(byte) MEGA65_VICIV::DEBUGX
(byte) MEGA65_VICIV::DEBUGXY
(byte) MEGA65_VICIV::DEBUGY
(byte) MEGA65_VICIV::FNRASTER_HI
(byte) MEGA65_VICIV::FNRASTER_LO
(byte) MEGA65_VICIV::HPOS
(byte) MEGA65_VICIV::IRQ_ENABLE
(byte) MEGA65_VICIV::IRQ_STATUS
(byte) MEGA65_VICIV::KEY
(byte) MEGA65_VICIV::LIGHTPEN_X
(byte) MEGA65_VICIV::LIGHTPEN_Y
(byte) MEGA65_VICIV::MEMORY
(byte) MEGA65_VICIV::PALSEL
(byte) MEGA65_VICIV::RASLINE0
(byte) MEGA65_VICIV::RASTER
(byte) MEGA65_VICIV::ROWCOUNT
(byte) MEGA65_VICIV::RSTCMP
(byte) MEGA65_VICIV::RSTCOMP
(byte) MEGA65_VICIV::SBPDEBUG
(byte) MEGA65_VICIV::SCRNPTR_HIHI
(byte) MEGA65_VICIV::SCRNPTR_HILO
(byte) MEGA65_VICIV::SCRNPTR_LOHI
(byte) MEGA65_VICIV::SCRNPTR_LOLO
(byte) MEGA65_VICIV::SIDBDRWD_HI
(byte) MEGA65_VICIV::SIDBDRWD_LO
(byte) MEGA65_VICIV::SPR16EN
(byte) MEGA65_VICIV::SPRALPHAVAL
(byte) MEGA65_VICIV::SPRENALPHA
(byte) MEGA65_VICIV::SPRENV400
(byte) MEGA65_VICIV::SPRHGHT
(byte) MEGA65_VICIV::SPRHGTEN
(byte) MEGA65_VICIV::SPRITE0_COLOR
(byte) MEGA65_VICIV::SPRITE0_X
(byte) MEGA65_VICIV::SPRITE0_Y
(byte) MEGA65_VICIV::SPRITE1_COLOR
(byte) MEGA65_VICIV::SPRITE1_X
(byte) MEGA65_VICIV::SPRITE1_Y
(byte) MEGA65_VICIV::SPRITE2_COLOR
(byte) MEGA65_VICIV::SPRITE2_X
(byte) MEGA65_VICIV::SPRITE2_Y
(byte) MEGA65_VICIV::SPRITE3_COLOR
(byte) MEGA65_VICIV::SPRITE3_X
(byte) MEGA65_VICIV::SPRITE3_Y
(byte) MEGA65_VICIV::SPRITE4_COLOR
(byte) MEGA65_VICIV::SPRITE4_X
(byte) MEGA65_VICIV::SPRITE4_Y
(byte) MEGA65_VICIV::SPRITE5_COLOR
(byte) MEGA65_VICIV::SPRITE5_X
(byte) MEGA65_VICIV::SPRITE5_Y
(byte) MEGA65_VICIV::SPRITE6_COLOR
(byte) MEGA65_VICIV::SPRITE6_X
(byte) MEGA65_VICIV::SPRITE6_Y
(byte) MEGA65_VICIV::SPRITE7_COLOR
(byte) MEGA65_VICIV::SPRITE7_X
(byte) MEGA65_VICIV::SPRITE7_Y
(byte) MEGA65_VICIV::SPRITES_BG_COLLISION
(byte) MEGA65_VICIV::SPRITES_COLLISION
(byte) MEGA65_VICIV::SPRITES_ENABLE
(byte) MEGA65_VICIV::SPRITES_EXPAND_X
(byte) MEGA65_VICIV::SPRITES_EXPAND_Y
(byte) MEGA65_VICIV::SPRITES_MC
(byte) MEGA65_VICIV::SPRITES_MCOLOR1
(byte) MEGA65_VICIV::SPRITES_MCOLOR2
(byte) MEGA65_VICIV::SPRITES_PRIORITY
(byte) MEGA65_VICIV::SPRITES_XMSB
(byte) MEGA65_VICIV::SPRPTRADR_HILO
(byte) MEGA65_VICIV::SPRPTRADR_LOHI
(byte) MEGA65_VICIV::SPRPTRADR_LOLO
(byte) MEGA65_VICIV::SPRX64EN
(byte) MEGA65_VICIV::SPRXSMSBS
(byte) MEGA65_VICIV::SPRYSMSBSM
(byte) MEGA65_VICIV::SRPYMSBS
(byte) MEGA65_VICIV::SYNCPOL
(byte) MEGA65_VICIV::TBDRPOS_HI
(byte) MEGA65_VICIV::TBDRPOS_LO
(byte) MEGA65_VICIV::TEXTXPOS_HI
(byte) MEGA65_VICIV::TEXTXPOS_LO
(byte) MEGA65_VICIV::TEXTYPOS_HI
(byte) MEGA65_VICIV::TEXTYPOS_LO
(byte) MEGA65_VICIV::UNUSED
(byte) MEGA65_VICIV::VPOS
(byte) MEGA65_VICIV::VSYNDEL
(byte) MEGA65_VICIV::XPOS_HI
(byte) MEGA65_VICIV::XPOS_LO
(byte) MOS4569_VICIII::B0PIX
(byte) MOS4569_VICIII::B0_ADDR
(byte) MOS4569_VICIII::B1PIX
(byte) MOS4569_VICIII::B1_ADDR
(byte) MOS4569_VICIII::B2PIX
(byte) MOS4569_VICIII::B2_ADDR
(byte) MOS4569_VICIII::B3PIX
(byte) MOS4569_VICIII::B3_ADDR
(byte) MOS4569_VICIII::B4PIX
(byte) MOS4569_VICIII::B4_ADDR
(byte) MOS4569_VICIII::B5PIX
(byte) MOS4569_VICIII::B5_ADDR
(byte) MOS4569_VICIII::B6PIX
(byte) MOS4569_VICIII::B6_ADDR
(byte) MOS4569_VICIII::B7PIX
(byte) MOS4569_VICIII::B7_ADDR
(byte) MOS4569_VICIII::BG_COLOR
(byte) MOS4569_VICIII::BG_COLOR1
(byte) MOS4569_VICIII::BG_COLOR2
(byte) MOS4569_VICIII::BG_COLOR3
(byte) MOS4569_VICIII::BORDER_COLOR
(byte) MOS4569_VICIII::BPCOMP
(byte) MOS4569_VICIII::BPX
(byte) MOS4569_VICIII::BPY
(byte) MOS4569_VICIII::CONTROL1
(byte) MOS4569_VICIII::CONTROL2
(byte) MOS4569_VICIII::CONTROLA
(byte) MOS4569_VICIII::CONTROLB
(byte) MOS4569_VICIII::HPOS
(byte) MOS4569_VICIII::IRQ_ENABLE
(byte) MOS4569_VICIII::IRQ_STATUS
(byte) MOS4569_VICIII::KEY
(byte) MOS4569_VICIII::LIGHTPEN_X
(byte) MOS4569_VICIII::LIGHTPEN_Y
(byte) MOS4569_VICIII::MEMORY
(byte) MOS4569_VICIII::RASTER
(byte) MOS4569_VICIII::SPRITE0_COLOR
(byte) MOS4569_VICIII::SPRITE0_X
(byte) MOS4569_VICIII::SPRITE0_Y
(byte) MOS4569_VICIII::SPRITE1_COLOR
(byte) MOS4569_VICIII::SPRITE1_X
(byte) MOS4569_VICIII::SPRITE1_Y
(byte) MOS4569_VICIII::SPRITE2_COLOR
(byte) MOS4569_VICIII::SPRITE2_X
(byte) MOS4569_VICIII::SPRITE2_Y
(byte) MOS4569_VICIII::SPRITE3_COLOR
(byte) MOS4569_VICIII::SPRITE3_X
(byte) MOS4569_VICIII::SPRITE3_Y
(byte) MOS4569_VICIII::SPRITE4_COLOR
(byte) MOS4569_VICIII::SPRITE4_X
(byte) MOS4569_VICIII::SPRITE4_Y
(byte) MOS4569_VICIII::SPRITE5_COLOR
(byte) MOS4569_VICIII::SPRITE5_X
(byte) MOS4569_VICIII::SPRITE5_Y
(byte) MOS4569_VICIII::SPRITE6_COLOR
(byte) MOS4569_VICIII::SPRITE6_X
(byte) MOS4569_VICIII::SPRITE6_Y
(byte) MOS4569_VICIII::SPRITE7_COLOR
(byte) MOS4569_VICIII::SPRITE7_X
(byte) MOS4569_VICIII::SPRITE7_Y
(byte) MOS4569_VICIII::SPRITES_BG_COLLISION
(byte) MOS4569_VICIII::SPRITES_COLLISION
(byte) MOS4569_VICIII::SPRITES_ENABLE
(byte) MOS4569_VICIII::SPRITES_EXPAND_X
(byte) MOS4569_VICIII::SPRITES_EXPAND_Y
(byte) MOS4569_VICIII::SPRITES_MC
(byte) MOS4569_VICIII::SPRITES_MCOLOR1
(byte) MOS4569_VICIII::SPRITES_MCOLOR2
(byte) MOS4569_VICIII::SPRITES_PRIORITY
(byte) MOS4569_VICIII::SPRITES_XMSB
(byte) MOS4569_VICIII::UNUSED
(byte) MOS4569_VICIII::VPOS
(byte) MOS6526_CIA::INTERRUPT
(byte) MOS6526_CIA::PORT_A
(byte) MOS6526_CIA::PORT_A_DDR
(byte) MOS6526_CIA::PORT_B
(byte) MOS6526_CIA::PORT_B_DDR
(byte) MOS6526_CIA::SERIAL_DATA
(word) MOS6526_CIA::TIMER_A
(byte) MOS6526_CIA::TIMER_A_CONTROL
(word) MOS6526_CIA::TIMER_B
(byte) MOS6526_CIA::TIMER_B_CONTROL
(byte) MOS6526_CIA::TOD_10THS
(byte) MOS6526_CIA::TOD_HOURS
(byte) MOS6526_CIA::TOD_MIN
(byte) MOS6526_CIA::TOD_SEC
(byte) MOS6569_VICII::BG_COLOR
(byte) MOS6569_VICII::BG_COLOR1
(byte) MOS6569_VICII::BG_COLOR2
(byte) MOS6569_VICII::BG_COLOR3
(byte) MOS6569_VICII::BORDER_COLOR
(byte) MOS6569_VICII::CONTROL1
(byte) MOS6569_VICII::CONTROL2
(byte) MOS6569_VICII::IRQ_ENABLE
(byte) MOS6569_VICII::IRQ_STATUS
(byte) MOS6569_VICII::LIGHTPEN_X
(byte) MOS6569_VICII::LIGHTPEN_Y
(byte) MOS6569_VICII::MEMORY
(byte) MOS6569_VICII::RASTER
(byte) MOS6569_VICII::SPRITE0_COLOR
(byte) MOS6569_VICII::SPRITE0_X
(byte) MOS6569_VICII::SPRITE0_Y
(byte) MOS6569_VICII::SPRITE1_COLOR
(byte) MOS6569_VICII::SPRITE1_X
(byte) MOS6569_VICII::SPRITE1_Y
(byte) MOS6569_VICII::SPRITE2_COLOR
(byte) MOS6569_VICII::SPRITE2_X
(byte) MOS6569_VICII::SPRITE2_Y
(byte) MOS6569_VICII::SPRITE3_COLOR
(byte) MOS6569_VICII::SPRITE3_X
(byte) MOS6569_VICII::SPRITE3_Y
(byte) MOS6569_VICII::SPRITE4_COLOR
(byte) MOS6569_VICII::SPRITE4_X
(byte) MOS6569_VICII::SPRITE4_Y
(byte) MOS6569_VICII::SPRITE5_COLOR
(byte) MOS6569_VICII::SPRITE5_X
(byte) MOS6569_VICII::SPRITE5_Y
(byte) MOS6569_VICII::SPRITE6_COLOR
(byte) MOS6569_VICII::SPRITE6_X
(byte) MOS6569_VICII::SPRITE6_Y
(byte) MOS6569_VICII::SPRITE7_COLOR
(byte) MOS6569_VICII::SPRITE7_X
(byte) MOS6569_VICII::SPRITE7_Y
(byte) MOS6569_VICII::SPRITES_BG_COLLISION
(byte) MOS6569_VICII::SPRITES_COLLISION
(byte) MOS6569_VICII::SPRITES_ENABLE
(byte) MOS6569_VICII::SPRITES_EXPAND_X
(byte) MOS6569_VICII::SPRITES_EXPAND_Y
(byte) MOS6569_VICII::SPRITES_MC
(byte) MOS6569_VICII::SPRITES_MCOLOR1
(byte) MOS6569_VICII::SPRITES_MCOLOR2
(byte) MOS6569_VICII::SPRITES_PRIORITY
(byte) MOS6569_VICII::SPRITES_XMSB
(byte) MOS6581_SID::CH1_ATTACK_DECAY
(byte) MOS6581_SID::CH1_CONTROL
(word) MOS6581_SID::CH1_FREQ
(word) MOS6581_SID::CH1_PULSE_WIDTH
(byte) MOS6581_SID::CH1_SUSTAIN_RELEASE
(byte) MOS6581_SID::CH2_ATTACK_DECAY
(byte) MOS6581_SID::CH2_CONTROL
(word) MOS6581_SID::CH2_FREQ
(word) MOS6581_SID::CH2_PULSE_WIDTH
(byte) MOS6581_SID::CH2_SUSTAIN_RELEASE
(byte) MOS6581_SID::CH3_ATTACK_DECAY
(byte) MOS6581_SID::CH3_CONTROL
(byte) MOS6581_SID::CH3_ENV
(word) MOS6581_SID::CH3_FREQ
(byte) MOS6581_SID::CH3_OSC
(word) MOS6581_SID::CH3_PULSE_WIDTH
(byte) MOS6581_SID::CH3_SUSTAIN_RELEASE
(byte) MOS6581_SID::FILTER_CUTOFF_HIGH
(byte) MOS6581_SID::FILTER_CUTOFF_LOW
(byte) MOS6581_SID::FILTER_SETUP
(byte) MOS6581_SID::POT_X
(byte) MOS6581_SID::POT_Y
(byte) MOS6581_SID::VOLUME_FILTER_MODE
(const byte) OFFSET_STRUCT_MOS6569_VICII_BORDER_COLOR = (byte) $20
(const byte) OFFSET_STRUCT_MOS6569_VICII_RASTER = (byte) $12
(const nomodify byte*) SCREEN = (byte*) 2048
(const nomodify struct MOS6569_VICII*) VICII = (struct MOS6569_VICII*) 53248
(void()) main()
(byte~) main::$2 reg byte a 22.0
(label) main::@1
(label) main::@2
(label) main::@3
(label) main::@4
(label) main::@5
(byte*) main::col
(byte*) main::col#1 col zp[2]:4 22.0
(byte*) main::col#2 col zp[2]:4 13.75
(byte*) main::sc
(byte*) main::sc#1 sc zp[2]:2 22.0
(byte*) main::sc#2 sc zp[2]:2 14.666666666666666

zp[2]:2 [ main::sc#2 main::sc#1 ]
zp[2]:4 [ main::col#2 main::col#1 ]
reg byte a [ main::$2 ]
