(const nomodify byte*) SCREEN = (byte*) 1024
(void()) __start()
(label) __start::@1
(label) __start::@return
(label) __start::__init1
(volatile byte) idx loadstore !zp[-1]:3 zp[1]:3 0.2222222222222222
(void()) main()
(label) main::@1
(label) main::@2
(label) main::@return
(void()) print((byte) print::ch)
(label) print::@return
(byte) print::ch loadstore !zp[-1]:2 zp[1]:2 11.0

zp[1]:3 [ idx ]
zp[1]:2 [ print::ch ]
