(void()) main()
(label) main::@1
(label) main::@return
(const byte*) main::SCREEN = (byte*) 1024
(volatile byte) main::b loadstore zp[1]:2 9.200000000000001
(const byte*) main::bp = &(volatile byte) main::b
(byte) main::c
(byte) main::c#0 reg byte a 22.0

zp[1]:2 [ main::b ]
reg byte a [ main::c#0 ]
