(const byte) SIZEOF_POINTER = (byte) 2
(const byte**) levelRowOff[(number) $1f]  = { (byte*) 1, (byte*) 2, (byte*) 3 }
(void()) main()
(byte~) main::$3 reg byte a 22.0
(label) main::@1
(label) main::@2
(label) main::@return
(byte) main::c
(byte) main::c#1 reg byte x 22.0
(byte) main::c#2 reg byte x 11.0

reg byte x [ main::c#2 main::c#1 ]
reg byte a [ main::$3 ]
