(void()) bool_and()
(byte~) bool_and::$1 reg byte a 101.0
(label) bool_and::@1
(label) bool_and::@2
(label) bool_and::@3
(label) bool_and::@4
(label) bool_and::@5
(label) bool_and::@return
(byte) bool_and::i
(byte) bool_and::i#1 reg byte x 151.5
(byte) bool_and::i#2 reg byte x 100.99999999999999
(const nomodify byte*) bool_and::screen = (byte*) 1024
(void()) bool_complex()
(byte~) bool_complex::$5 reg byte a 75.75
(label) bool_complex::@1
(label) bool_complex::@2
(label) bool_complex::@3
(label) bool_complex::@4
(label) bool_complex::@5
(label) bool_complex::@6
(label) bool_complex::@7
(label) bool_complex::@return
(byte) bool_complex::i
(byte) bool_complex::i#1 reg byte x 151.5
(byte) bool_complex::i#2 reg byte x 88.375
(const nomodify byte*) bool_complex::screen = (byte*) 1144
(void()) bool_not()
(byte~) bool_not::$1 reg byte a 101.0
(label) bool_not::@1
(label) bool_not::@2
(label) bool_not::@3
(label) bool_not::@4
(label) bool_not::@5
(label) bool_not::@return
(byte) bool_not::i
(byte) bool_not::i#1 reg byte x 151.5
(byte) bool_not::i#2 reg byte x 100.99999999999999
(const nomodify byte*) bool_not::screen = (byte*) 1104
(void()) bool_or()
(byte~) bool_or::$1 reg byte a 101.0
(label) bool_or::@1
(label) bool_or::@2
(label) bool_or::@3
(label) bool_or::@4
(label) bool_or::@5
(label) bool_or::@return
(byte) bool_or::i
(byte) bool_or::i#1 reg byte x 151.5
(byte) bool_or::i#2 reg byte x 100.99999999999999
(const nomodify byte*) bool_or::screen = (byte*) 1064
(void()) main()
(label) main::@1
(label) main::@2
(label) main::@3
(label) main::@return

reg byte x [ bool_and::i#2 bool_and::i#1 ]
reg byte x [ bool_or::i#2 bool_or::i#1 ]
reg byte x [ bool_not::i#2 bool_not::i#1 ]
reg byte x [ bool_complex::i#2 bool_complex::i#1 ]
reg byte a [ bool_and::$1 ]
reg byte a [ bool_or::$1 ]
reg byte a [ bool_not::$1 ]
reg byte a [ bool_complex::$5 ]
