(void()) main()
(label) main::@return
(const nomodify byte*) main::SCREEN = (byte*) 1024
(const byte) main::b = (byte) 0
(const byte*) main::c[(number) 3]  = { fill( 3, 0) }
(const byte) main::d = (byte) 0

