(const dword*) SCREEN = (dword*) 1024
(void()) main()
(label) main::@1
(label) main::@2
(label) main::@3
(label) main::@return
(dword) main::addend
(dword) main::addend#1 addend zp[4]:7 11.0
(dword) main::addend#2 addend zp[4]:7 11.0
(byte) main::i
(byte) main::i#1 i zp[1]:2 22.0
(byte) main::i#2 i zp[1]:2 11.0
(dword) main::sum
(dword) main::sum#1 sum zp[4]:3 7.333333333333333
(dword) main::sum#2 sum zp[4]:3 12.0

zp[1]:2 [ main::i#2 main::i#1 ]
zp[4]:3 [ main::sum#2 main::sum#1 ]
zp[4]:7 [ main::addend#2 main::addend#1 ]
