(const byte*) SCREEN = (byte*) 1024
(void()) main()
(word~) main::$0 zp[2]:3 22.0
(byte~) main::$2 reg byte a 202.0
(word~) main::$5 zp[2]:3 16.5
(word~) main::$6 zp[2]:5 22.0
(word~) main::$7 zp[2]:3 22.0
(label) main::@1
(label) main::@2
(label) main::@3
(label) main::@return
(byte*) main::line
(byte*) main::line#0 line zp[2]:3 18.666666666666664
(byte) main::x
(byte) main::x#1 reg byte y 151.5
(byte) main::x#2 reg byte y 134.66666666666666
(byte) main::y
(byte) main::y#1 y zp[1]:2 16.5
(byte) main::y#2 y zp[1]:2 11.181818181818182

zp[1]:2 [ main::y#2 main::y#1 ]
reg byte y [ main::x#2 main::x#1 ]
zp[2]:3 [ main::$5 main::$7 main::$0 main::line#0 ]
zp[2]:5 [ main::$6 ]
reg byte a [ main::$2 ]
