(const byte*) SCREEN = (byte*) 1024
(void()) main()
(label) main::@1
(label) main::@2
(label) main::@return
(byte*) main::dst
(byte*) main::dst#1 dst zp[2]:2 22.0
(byte*) main::dst#2 dst zp[2]:2 14.666666666666666

zp[2]:2 [ main::dst#2 main::dst#1 ]
