(const byte*) CHARSET = (byte*) 8192
(const nomodify byte*) D018 = (byte*) 53272
(const byte*) FONT_HEX_PROTO[]  = { (byte) 2, (byte) 5, (byte) 5, (byte) 5, (byte) 2, (byte) 6, (byte) 2, (byte) 2, (byte) 2, (byte) 7, (byte) 6, (byte) 1, (byte) 2, (byte) 4, (byte) 7, (byte) 6, (byte) 1, (byte) 2, (byte) 1, (byte) 6, (byte) 5, (byte) 5, (byte) 7, (byte) 1, (byte) 1, (byte) 7, (byte) 4, (byte) 6, (byte) 1, (byte) 6, (byte) 3, (byte) 4, (byte) 6, (byte) 5, (byte) 2, (byte) 7, (byte) 1, (byte) 1, (byte) 1, (byte) 1, (byte) 2, (byte) 5, (byte) 2, (byte) 5, (byte) 2, (byte) 2, (byte) 5, (byte) 3, (byte) 1, (byte) 1, (byte) 2, (byte) 5, (byte) 7, (byte) 5, (byte) 5, (byte) 6, (byte) 5, (byte) 6, (byte) 5, (byte) 6, (byte) 2, (byte) 5, (byte) 4, (byte) 5, (byte) 2, (byte) 6, (byte) 5, (byte) 5, (byte) 5, (byte) 6, (byte) 7, (byte) 4, (byte) 6, (byte) 4, (byte) 7, (byte) 7, (byte) 4, (byte) 6, (byte) 4, (byte) 4 }
(byte) MOS6526_CIA::INTERRUPT
(byte) MOS6526_CIA::PORT_A
(byte) MOS6526_CIA::PORT_A_DDR
(byte) MOS6526_CIA::PORT_B
(byte) MOS6526_CIA::PORT_B_DDR
(byte) MOS6526_CIA::SERIAL_DATA
(word) MOS6526_CIA::TIMER_A
(byte) MOS6526_CIA::TIMER_A_CONTROL
(word) MOS6526_CIA::TIMER_B
(byte) MOS6526_CIA::TIMER_B_CONTROL
(byte) MOS6526_CIA::TOD_10THS
(byte) MOS6526_CIA::TOD_HOURS
(byte) MOS6526_CIA::TOD_MIN
(byte) MOS6526_CIA::TOD_SEC
(byte) MOS6569_VICII::BG_COLOR
(byte) MOS6569_VICII::BG_COLOR1
(byte) MOS6569_VICII::BG_COLOR2
(byte) MOS6569_VICII::BG_COLOR3
(byte) MOS6569_VICII::BORDER_COLOR
(byte) MOS6569_VICII::CONTROL1
(byte) MOS6569_VICII::CONTROL2
(byte) MOS6569_VICII::IRQ_ENABLE
(byte) MOS6569_VICII::IRQ_STATUS
(byte) MOS6569_VICII::LIGHTPEN_X
(byte) MOS6569_VICII::LIGHTPEN_Y
(byte) MOS6569_VICII::MEMORY
(byte) MOS6569_VICII::RASTER
(byte) MOS6569_VICII::SPRITE0_COLOR
(byte) MOS6569_VICII::SPRITE0_X
(byte) MOS6569_VICII::SPRITE0_Y
(byte) MOS6569_VICII::SPRITE1_COLOR
(byte) MOS6569_VICII::SPRITE1_X
(byte) MOS6569_VICII::SPRITE1_Y
(byte) MOS6569_VICII::SPRITE2_COLOR
(byte) MOS6569_VICII::SPRITE2_X
(byte) MOS6569_VICII::SPRITE2_Y
(byte) MOS6569_VICII::SPRITE3_COLOR
(byte) MOS6569_VICII::SPRITE3_X
(byte) MOS6569_VICII::SPRITE3_Y
(byte) MOS6569_VICII::SPRITE4_COLOR
(byte) MOS6569_VICII::SPRITE4_X
(byte) MOS6569_VICII::SPRITE4_Y
(byte) MOS6569_VICII::SPRITE5_COLOR
(byte) MOS6569_VICII::SPRITE5_X
(byte) MOS6569_VICII::SPRITE5_Y
(byte) MOS6569_VICII::SPRITE6_COLOR
(byte) MOS6569_VICII::SPRITE6_X
(byte) MOS6569_VICII::SPRITE6_Y
(byte) MOS6569_VICII::SPRITE7_COLOR
(byte) MOS6569_VICII::SPRITE7_X
(byte) MOS6569_VICII::SPRITE7_Y
(byte) MOS6569_VICII::SPRITES_BG_COLLISION
(byte) MOS6569_VICII::SPRITES_COLLISION
(byte) MOS6569_VICII::SPRITES_ENABLE
(byte) MOS6569_VICII::SPRITES_EXPAND_X
(byte) MOS6569_VICII::SPRITES_EXPAND_Y
(byte) MOS6569_VICII::SPRITES_MC
(byte) MOS6569_VICII::SPRITES_MCOLOR1
(byte) MOS6569_VICII::SPRITES_MCOLOR2
(byte) MOS6569_VICII::SPRITES_PRIORITY
(byte) MOS6569_VICII::SPRITES_XMSB
(byte) MOS6581_SID::CH1_ATTACK_DECAY
(byte) MOS6581_SID::CH1_CONTROL
(word) MOS6581_SID::CH1_FREQ
(word) MOS6581_SID::CH1_PULSE_WIDTH
(byte) MOS6581_SID::CH1_SUSTAIN_RELEASE
(byte) MOS6581_SID::CH2_ATTACK_DECAY
(byte) MOS6581_SID::CH2_CONTROL
(word) MOS6581_SID::CH2_FREQ
(word) MOS6581_SID::CH2_PULSE_WIDTH
(byte) MOS6581_SID::CH2_SUSTAIN_RELEASE
(byte) MOS6581_SID::CH3_ATTACK_DECAY
(byte) MOS6581_SID::CH3_CONTROL
(byte) MOS6581_SID::CH3_ENV
(word) MOS6581_SID::CH3_FREQ
(byte) MOS6581_SID::CH3_OSC
(word) MOS6581_SID::CH3_PULSE_WIDTH
(byte) MOS6581_SID::CH3_SUSTAIN_RELEASE
(byte) MOS6581_SID::FILTER_CUTOFF_HIGH
(byte) MOS6581_SID::FILTER_CUTOFF_LOW
(byte) MOS6581_SID::FILTER_SETUP
(byte) MOS6581_SID::POT_X
(byte) MOS6581_SID::POT_Y
(byte) MOS6581_SID::VOLUME_FILTER_MODE
(const byte*) SCREEN = (byte*) 1024
(void()) init_font_hex((byte*) init_font_hex::charset)
(byte~) init_font_hex::$0 zp[1]:11 10001.0
(byte~) init_font_hex::$1 reg byte a 20002.0
(byte~) init_font_hex::$2 reg byte a 20002.0
(label) init_font_hex::@1
(label) init_font_hex::@2
(label) init_font_hex::@3
(label) init_font_hex::@4
(label) init_font_hex::@5
(label) init_font_hex::@return
(byte) init_font_hex::c
(byte) init_font_hex::c#1 c zp[1]:4 151.5
(byte) init_font_hex::c#6 c zp[1]:4 10.631578947368421
(byte) init_font_hex::c1
(byte) init_font_hex::c1#1 c1 zp[1]:9 1501.5
(byte) init_font_hex::c1#4 c1 zp[1]:9 133.46666666666667
(byte*) init_font_hex::charset
(byte*) init_font_hex::charset#0 charset zp[2]:5 350.5
(byte*) init_font_hex::charset#2 charset zp[2]:5 1079.0714285714287
(byte*) init_font_hex::charset#5 charset zp[2]:5 202.0
(byte) init_font_hex::i
(byte) init_font_hex::i#1 reg byte x 15001.5
(byte) init_font_hex::i#2 reg byte x 6667.333333333333
(byte) init_font_hex::idx
(byte) init_font_hex::idx#2 idx zp[1]:10 5501.0
(byte) init_font_hex::idx#3 reg byte y 2002.0
(byte) init_font_hex::idx#5 idx zp[1]:10 6000.6
(byte*) init_font_hex::proto_hi
(byte*) init_font_hex::proto_hi#1 proto_hi zp[2]:2 67.33333333333333
(byte*) init_font_hex::proto_hi#6 proto_hi zp[2]:2 566.8333333333333
(byte*) init_font_hex::proto_lo
(byte*) init_font_hex::proto_lo#1 proto_lo zp[2]:7 500.5
(byte*) init_font_hex::proto_lo#4 proto_lo zp[2]:7 923.3076923076923
(void()) main()
(label) main::@1
(label) main::@2
(label) main::@return
(byte) main::c
(byte) main::c#1 reg byte x 16.5
(byte) main::c#2 reg byte x 22.0
(label) main::toD0181
(byte*) main::toD0181_gfx
(byte) main::toD0181_return
(const byte) main::toD0181_return#0 toD0181_return = >(word)(const byte*) SCREEN&(word) $3fff*(byte) 4|>(word)(const byte*) CHARSET/(byte) 4&(byte) $f
(byte*) main::toD0181_screen

reg byte x [ main::c#2 main::c#1 ]
zp[2]:2 [ init_font_hex::proto_hi#6 init_font_hex::proto_hi#1 ]
zp[1]:4 [ init_font_hex::c#6 init_font_hex::c#1 ]
zp[2]:5 [ init_font_hex::charset#2 init_font_hex::charset#5 init_font_hex::charset#0 ]
zp[2]:7 [ init_font_hex::proto_lo#4 init_font_hex::proto_lo#1 ]
zp[1]:9 [ init_font_hex::c1#4 init_font_hex::c1#1 ]
reg byte x [ init_font_hex::i#2 init_font_hex::i#1 ]
zp[1]:10 [ init_font_hex::idx#5 init_font_hex::idx#2 ]
zp[1]:11 [ init_font_hex::$0 ]
reg byte a [ init_font_hex::$1 ]
reg byte a [ init_font_hex::$2 ]
reg byte y [ init_font_hex::idx#3 ]
