(void()*) funcPointer
(void()) main()
(label) main::@return
__stackcall (void()) myFunc()
(label) myFunc::@return
(const nomodify byte*) myFunc::BORDER_COLOR = (byte*) 53280
__stackcall (void()) myFunc2()
(label) myFunc2::@return
(const nomodify byte*) myFunc2::BG_COLOR = (byte*) 53281

