(void()) fn1()
(label) fn1::@return
(const nomodify byte*) fn1::BORDER_COLOR = (byte*) 53280
(void()) fn2()
(label) fn2::@return
(const nomodify byte*) fn2::BG_COLOR = (byte*) 53281
(void()*()) getfn((byte) getfn::b)
(byte~) getfn::$0 reg byte a 202.0
(label) getfn::@1
(label) getfn::@return
(byte) getfn::b
(byte) getfn::b#0 reg byte a 112.0
(void()*) getfn::return
(void()*) getfn::return#0 return zp[2]:3 22.0
(void()*) getfn::return#3 return zp[2]:3 3.6666666666666665
(void()) main()
(void()*~) main::$1 zp[2]:3 11.0
(label) main::@1
(label) main::@2
(label) main::@3
(byte) main::i
(byte) main::i#1 i zp[1]:2 5.5
(byte) main::i#2 i zp[1]:2 22.0

zp[1]:2 [ main::i#2 main::i#1 ]
zp[2]:3 [ getfn::return#3 getfn::return#0 main::$1 ]
reg byte a [ getfn::b#0 ]
reg byte a [ getfn::$0 ]
