(void()) __start()
(label) __start::@1
(label) __start::@return
(label) __start::__init1
(void()) main()
(label) main::@1
(label) main::@2
(label) main::@return
(volatile byte) x loadstore zp[1]:2 63.2

zp[1]:2 [ x ]
