(void()) main()
(label) main::@1
(label) main::@return
(void()) print((byte*) print::msg)
(label) print::@1
(label) print::@2
(label) print::@return
(byte*) print::msg
(byte*) print::msg#0 msg zp[2]:4 56.0
(byte*) print::msg#1 msg zp[2]:4 2002.0
(byte*) print::msg#2 msg zp[2]:4 1026.25
(void()) print_msg((byte) print_msg::idx)
(label) print_msg::@1
(label) print_msg::@2
(label) print_msg::@return
(byte) print_msg::idx
(byte) print_msg::idx#2 reg byte x 11.0
(byte*) print_msg::msg
(const byte*) print_msg::msg#1 msg_1 = (byte*) "Hello "
(const byte*) print_msg::msg#2 msg_2 = (byte*) "World!"
(byte*) print_msg::msg#3 msg zp[2]:4 11.0
(byte*) screen
(byte*) screen#15 screen zp[2]:2 388.25
(byte*) screen#20 screen zp[2]:2 17.166666666666664
(byte*) screen#5 screen zp[2]:2 1001.0

reg byte x [ print_msg::idx#2 ]
zp[2]:2 [ screen#20 screen#15 screen#5 ]
zp[2]:4 [ print_msg::msg#3 print::msg#2 print::msg#0 print::msg#1 ]
