(const nomodify byte*) BG_COLOR = (byte*) 53281
(const nomodify byte*) BORDER_COLOR = (byte*) 53280
(const nomodify struct MOS6526_CIA*) CIA1 = (struct MOS6526_CIA*) 56320
(const nomodify byte) GREEN = (byte) 5
(const nomodify byte) KEY_C = (byte) $14
(const nomodify byte) KEY_E = (byte) $e
(const nomodify byte) KEY_I = (byte) $21
(const nomodify byte) KEY_SPACE = (byte) $3c
(byte) MOS6526_CIA::INTERRUPT
(byte) MOS6526_CIA::PORT_A
(byte) MOS6526_CIA::PORT_A_DDR
(byte) MOS6526_CIA::PORT_B
(byte) MOS6526_CIA::PORT_B_DDR
(byte) MOS6526_CIA::SERIAL_DATA
(word) MOS6526_CIA::TIMER_A
(byte) MOS6526_CIA::TIMER_A_CONTROL
(word) MOS6526_CIA::TIMER_B
(byte) MOS6526_CIA::TIMER_B_CONTROL
(byte) MOS6526_CIA::TOD_10THS
(byte) MOS6526_CIA::TOD_HOURS
(byte) MOS6526_CIA::TOD_MIN
(byte) MOS6526_CIA::TOD_SEC
(byte) MOS6569_VICII::BG_COLOR
(byte) MOS6569_VICII::BG_COLOR1
(byte) MOS6569_VICII::BG_COLOR2
(byte) MOS6569_VICII::BG_COLOR3
(byte) MOS6569_VICII::BORDER_COLOR
(byte) MOS6569_VICII::CONTROL1
(byte) MOS6569_VICII::CONTROL2
(byte) MOS6569_VICII::IRQ_ENABLE
(byte) MOS6569_VICII::IRQ_STATUS
(byte) MOS6569_VICII::LIGHTPEN_X
(byte) MOS6569_VICII::LIGHTPEN_Y
(byte) MOS6569_VICII::MEMORY
(byte) MOS6569_VICII::RASTER
(byte) MOS6569_VICII::SPRITE0_COLOR
(byte) MOS6569_VICII::SPRITE0_X
(byte) MOS6569_VICII::SPRITE0_Y
(byte) MOS6569_VICII::SPRITE1_COLOR
(byte) MOS6569_VICII::SPRITE1_X
(byte) MOS6569_VICII::SPRITE1_Y
(byte) MOS6569_VICII::SPRITE2_COLOR
(byte) MOS6569_VICII::SPRITE2_X
(byte) MOS6569_VICII::SPRITE2_Y
(byte) MOS6569_VICII::SPRITE3_COLOR
(byte) MOS6569_VICII::SPRITE3_X
(byte) MOS6569_VICII::SPRITE3_Y
(byte) MOS6569_VICII::SPRITE4_COLOR
(byte) MOS6569_VICII::SPRITE4_X
(byte) MOS6569_VICII::SPRITE4_Y
(byte) MOS6569_VICII::SPRITE5_COLOR
(byte) MOS6569_VICII::SPRITE5_X
(byte) MOS6569_VICII::SPRITE5_Y
(byte) MOS6569_VICII::SPRITE6_COLOR
(byte) MOS6569_VICII::SPRITE6_X
(byte) MOS6569_VICII::SPRITE6_Y
(byte) MOS6569_VICII::SPRITE7_COLOR
(byte) MOS6569_VICII::SPRITE7_X
(byte) MOS6569_VICII::SPRITE7_Y
(byte) MOS6569_VICII::SPRITES_BG_COLLISION
(byte) MOS6569_VICII::SPRITES_COLLISION
(byte) MOS6569_VICII::SPRITES_ENABLE
(byte) MOS6569_VICII::SPRITES_EXPAND_X
(byte) MOS6569_VICII::SPRITES_EXPAND_Y
(byte) MOS6569_VICII::SPRITES_MC
(byte) MOS6569_VICII::SPRITES_MCOLOR1
(byte) MOS6569_VICII::SPRITES_MCOLOR2
(byte) MOS6569_VICII::SPRITES_PRIORITY
(byte) MOS6569_VICII::SPRITES_XMSB
(byte) MOS6581_SID::CH1_ATTACK_DECAY
(byte) MOS6581_SID::CH1_CONTROL
(word) MOS6581_SID::CH1_FREQ
(word) MOS6581_SID::CH1_PULSE_WIDTH
(byte) MOS6581_SID::CH1_SUSTAIN_RELEASE
(byte) MOS6581_SID::CH2_ATTACK_DECAY
(byte) MOS6581_SID::CH2_CONTROL
(word) MOS6581_SID::CH2_FREQ
(word) MOS6581_SID::CH2_PULSE_WIDTH
(byte) MOS6581_SID::CH2_SUSTAIN_RELEASE
(byte) MOS6581_SID::CH3_ATTACK_DECAY
(byte) MOS6581_SID::CH3_CONTROL
(byte) MOS6581_SID::CH3_ENV
(word) MOS6581_SID::CH3_FREQ
(byte) MOS6581_SID::CH3_OSC
(word) MOS6581_SID::CH3_PULSE_WIDTH
(byte) MOS6581_SID::CH3_SUSTAIN_RELEASE
(byte) MOS6581_SID::FILTER_CUTOFF_HIGH
(byte) MOS6581_SID::FILTER_CUTOFF_LOW
(byte) MOS6581_SID::FILTER_SETUP
(byte) MOS6581_SID::POT_X
(byte) MOS6581_SID::POT_Y
(byte) MOS6581_SID::VOLUME_FILTER_MODE
(const byte) OFFSET_STRUCT_MOS6526_CIA_PORT_B = (byte) 1
(const nomodify byte) RED = (byte) 2
(const byte*) SCREEN = (byte*) 1024
(byte()) keyboard_key_pressed((byte) keyboard_key_pressed::key)
(byte~) keyboard_key_pressed::$2 reg byte a 2000002.0
(label) keyboard_key_pressed::@1
(label) keyboard_key_pressed::@return
(byte) keyboard_key_pressed::colidx
(byte) keyboard_key_pressed::colidx#0 reg byte y 333333.6666666667
(byte) keyboard_key_pressed::key
(byte) keyboard_key_pressed::key#4 reg byte x 1000001.0
(byte) keyboard_key_pressed::return
(byte) keyboard_key_pressed::return#0 reg byte a 188334.1666666667
(byte) keyboard_key_pressed::return#10 reg byte a 200002.0
(byte) keyboard_key_pressed::return#2 reg byte a 20002.0
(byte) keyboard_key_pressed::return#3 reg byte a 20002.0
(byte) keyboard_key_pressed::return#4 reg byte a 20002.0
(byte) keyboard_key_pressed::rowidx
(byte) keyboard_key_pressed::rowidx#0 reg byte a 2000002.0
(const byte*) keyboard_matrix_col_bitmask[(number) 8]  = { (byte) 1, (byte) 2, (byte) 4, (byte) 8, (byte) $10, (byte) $20, (byte) $40, (byte) $80 }
(byte()) keyboard_matrix_read((byte) keyboard_matrix_read::rowid)
(label) keyboard_matrix_read::@return
(byte) keyboard_matrix_read::return
(byte) keyboard_matrix_read::return#0 reg byte a 3666667.333333333
(byte) keyboard_matrix_read::return#2 reg byte a 2000002.0
(byte) keyboard_matrix_read::row_pressed_bits
(byte) keyboard_matrix_read::rowid
(byte) keyboard_matrix_read::rowid#0 reg byte x 1.1000002E7
(const byte*) keyboard_matrix_row_bitmask[(number) 8]  = { (byte) $fe, (byte) $fd, (byte) $fb, (byte) $f7, (byte) $ef, (byte) $df, (byte) $bf, (byte) $7f }
(void()) main()
(label) main::@1
(void()) menu()
(byte~) menu::$0 reg byte a 20002.0
(byte~) menu::$4 reg byte a 20002.0
(byte~) menu::$7 reg byte a 20002.0
(label) menu::@1
(label) menu::@10
(label) menu::@2
(label) menu::@3
(label) menu::@4
(label) menu::@5
(label) menu::@6
(label) menu::@7
(label) menu::@8
(label) menu::@9
(label) menu::@return
(void()) pressed()
(byte~) pressed::$1 reg byte a 200002.0
(label) pressed::@1
(label) pressed::@2
(label) pressed::@return

reg byte x [ keyboard_key_pressed::key#4 ]
reg byte a [ keyboard_key_pressed::return#2 ]
reg byte a [ menu::$0 ]
reg byte a [ keyboard_key_pressed::return#3 ]
reg byte a [ menu::$4 ]
reg byte a [ keyboard_key_pressed::return#4 ]
reg byte a [ menu::$7 ]
reg byte y [ keyboard_key_pressed::colidx#0 ]
reg byte a [ keyboard_key_pressed::rowidx#0 ]
reg byte x [ keyboard_matrix_read::rowid#0 ]
reg byte a [ keyboard_matrix_read::return#2 ]
reg byte a [ keyboard_key_pressed::$2 ]
reg byte a [ keyboard_key_pressed::return#0 ]
reg byte a [ keyboard_key_pressed::return#10 ]
reg byte a [ pressed::$1 ]
reg byte a [ keyboard_matrix_read::return#0 ]
