(void()) main()
(label) main::@1
(label) main::@2
(label) main::@3
(label) main::@return
(byte) main::i
(byte) main::i#1 reg byte x 16.5
(byte) main::i#2 reg byte x 11.0
(byte) main::s
(byte) main::s#1 reg byte a 22.0
(byte) main::s#2 reg byte a 16.5
(byte) main::s#4 reg byte a 11.0

reg byte x [ main::i#2 main::i#1 ]
reg byte a [ main::s#2 main::s#4 main::s#1 ]
