(const nomodify byte*) SCREEN = (byte*) 1024
(void()) main()
(byte~) main::$0 reg byte x 4.0
(label) main::@1
(label) main::@2
(label) main::@3
(label) main::@return
(byte) main::b
(byte) main::b#1 reg byte x 22.0
(byte) main::b#2 reg byte x 17.5
(const to_nomodify byte*) str[]  = (byte*) "Hello!"

reg byte x [ main::b#2 main::b#1 ]
reg byte x [ main::$0 ]
