(const nomodify byte*) SCREEN = (byte*) 1024
(void()) main()
(label) main::@1
(label) main::@return
(void()) print((nomodify byte) print::c)
(label) print::@return
(nomodify byte) print::c
(nomodify byte) print::c#2 reg byte a 11.0

reg byte a [ print::c#2 ]
