(void()) main()
(label) main::@1
(label) main::@return
(const nomodify byte*) main::BG_COLOR = (byte*) 53280
(const nomodify byte) main::RED = (byte) 2
(const byte) main::b1 = (byte) $fa
(byte) main::b2
(const byte) main::b2#0 b2 = (const byte) main::b1+(byte) $fa
(const nomodify word*) main::screen = (word*) 1024
(word) main::w
(const word) main::w#0 w = (const byte) main::b2#0+(byte) 1

