(void()) __start()
(label) __start::@1
(label) __start::@return
(label) __start::__init1
(void()) main()
(label) main::@1
(label) main::@2
(label) main::@return
(volatile byte*) screen loadstore zp[2]:4 2.666666666666667
(const byte*) screen1 = (byte*) 1024
(const byte*) screen2 = (byte*)(number) $400+(number) $28
(void()) setscreen((byte**) setscreen::screen , (byte*) setscreen::val)
(label) setscreen::@return
(byte**) setscreen::screen
(byte*) setscreen::val
(byte*) setscreen::val#2 val zp[2]:2 101.0

zp[2]:2 [ setscreen::val#2 ]
zp[2]:4 [ screen ]
