(const byte*) MESSAGE[(number) $14]  = (byte*) "camelot"
(const nomodify byte*) SCREEN = (byte*) 1024
(void()) main()
(byte~) main::$0 reg byte a 11.0
(label) main::@1
(label) main::@2
(label) main::@3
(label) main::@4
(label) main::@return
(byte) main::i
(byte) main::i#1 reg byte x 22.0
(byte) main::i#2 reg byte x 18.333333333333332
(byte*) main::msg
(byte*) main::msg#1 msg zp[2]:2 12.0
(byte*) main::msg#2 msg zp[2]:2 3.0
(byte*) main::msg#3 msg zp[2]:2 4.0
(byte*) main::msg#4 msg zp[2]:2 16.5

zp[2]:2 [ main::msg#4 main::msg#1 main::msg#2 main::msg#3 ]
reg byte x [ main::i#2 main::i#1 ]
reg byte a [ main::$0 ]
