(const nomodify byte*) SCREEN = (byte*) 1024
(void()) __start()
(label) __start::@1
(label) __start::@return
(label) __start::__init1
(void()) init()
(label) init::@return
(void()) main()
(label) main::@return

