(const nomodify byte*) SCREEN = (byte*) 1024
(const word) STACK_BASE = (word) $103
(void()) main()
(byte~) main::$0 reg byte a 4.0
(label) main::@return
__stackcall (byte()) pow2((byte) pow2::n)
(byte~) pow2::$1 reg byte a 22.0
(label) pow2::@1
(label) pow2::@return
(const byte) pow2::OFFSET_STACK_N = (byte) 0
(const byte) pow2::OFFSET_STACK_RETURN = (byte) 0
(byte) pow2::c
(byte) pow2::c#0 reg byte a 33.0
(byte) pow2::n
(byte) pow2::n#0 reg byte a 16.5
(byte) pow2::return
(byte) pow2::return#1 reg byte a 22.0
(byte) pow2::return#2 reg byte a 22.0

reg byte a [ pow2::return#2 pow2::return#1 ]
reg byte a [ pow2::n#0 ]
reg byte a [ pow2::$1 ]
reg byte a [ pow2::c#0 ]
reg byte a [ main::$0 ]
