(const nomodify byte*) SCREEN = (byte*) 1024
(void()) __start()
(label) __start::@1
(label) __start::@return
(label) __start::__init1
__stackcall (void()) incval()
(label) incval::@return
__stackcall (void()) ival()
(label) ival::@return
__stackcall (void()) main()
(label) main::@1
(label) main::@return
(byte) main::i
(byte) main::i#1 reg byte y 151.5
(byte) main::i#2 reg byte y 50.5
__stackcall (void()) printother()
(label) printother::@1
(label) printother::@return
(byte) printother::i
(byte) printother::i#1 reg byte x 15001.5
(byte) printother::i#2 reg byte x 20002.0
__stackcall (void()) printval()
(label) printval::@return
__stackcall (void()) pval()
(label) pval::@return
(byte) val loadstore zp[1]:2 1579.2105263157896

reg byte x [ printother::i#2 printother::i#1 ]
reg byte y [ main::i#2 main::i#1 ]
zp[1]:2 [ val ]
