
CONTROL FLOW GRAPH SSA

(word()) mul8u((byte) mul8u::a , (byte) mul8u::b)
mul8u: scope:[mul8u]  from main::@1 main::@2
  (byte) mul8u::a#6 ← phi( main::@1/(byte) mul8u::a#1 main::@2/(byte) mul8u::a#2 )
  (byte) mul8u::b#2 ← phi( main::@1/(byte) mul8u::b#0 main::@2/(byte) mul8u::b#1 )
  (word) mul8u::res#0 ← (word) 0
  (word) mul8u::mb#0 ← (word)(byte) mul8u::b#2
  to:mul8u::@1
mul8u::@1: scope:[mul8u]  from mul8u mul8u::@4
  (word) mul8u::mb#5 ← phi( mul8u/(word) mul8u::mb#0 mul8u::@4/(word) mul8u::mb#1 )
  (word) mul8u::res#4 ← phi( mul8u/(word) mul8u::res#0 mul8u::@4/(word) mul8u::res#6 )
  (byte) mul8u::a#3 ← phi( mul8u/(byte) mul8u::a#6 mul8u::@4/(byte) mul8u::a#0 )
  (bool~) mul8u::$0 ← (byte) mul8u::a#3 != (number) 0
  if((bool~) mul8u::$0) goto mul8u::@2
  to:mul8u::@3
mul8u::@2: scope:[mul8u]  from mul8u::@1
  (word) mul8u::res#5 ← phi( mul8u::@1/(word) mul8u::res#4 )
  (word) mul8u::mb#4 ← phi( mul8u::@1/(word) mul8u::mb#5 )
  (byte) mul8u::a#4 ← phi( mul8u::@1/(byte) mul8u::a#3 )
  (number~) mul8u::$1 ← (byte) mul8u::a#4 & (number) 1
  (bool~) mul8u::$2 ← (number~) mul8u::$1 != (number) 0
  (bool~) mul8u::$3 ← ! (bool~) mul8u::$2
  if((bool~) mul8u::$3) goto mul8u::@4
  to:mul8u::@5
mul8u::@3: scope:[mul8u]  from mul8u::@1
  (word) mul8u::res#2 ← phi( mul8u::@1/(word) mul8u::res#4 )
  (word) mul8u::return#0 ← (word) mul8u::res#2
  to:mul8u::@return
mul8u::@4: scope:[mul8u]  from mul8u::@2 mul8u::@5
  (word) mul8u::res#6 ← phi( mul8u::@2/(word) mul8u::res#5 mul8u::@5/(word) mul8u::res#1 )
  (word) mul8u::mb#2 ← phi( mul8u::@2/(word) mul8u::mb#4 mul8u::@5/(word) mul8u::mb#3 )
  (byte) mul8u::a#5 ← phi( mul8u::@2/(byte) mul8u::a#4 mul8u::@5/(byte) mul8u::a#7 )
  (byte~) mul8u::$5 ← (byte) mul8u::a#5 >> (number) 1
  (byte) mul8u::a#0 ← (byte~) mul8u::$5
  (word~) mul8u::$6 ← (word) mul8u::mb#2 << (number) 1
  (word) mul8u::mb#1 ← (word~) mul8u::$6
  to:mul8u::@1
mul8u::@5: scope:[mul8u]  from mul8u::@2
  (byte) mul8u::a#7 ← phi( mul8u::@2/(byte) mul8u::a#4 )
  (word) mul8u::mb#3 ← phi( mul8u::@2/(word) mul8u::mb#4 )
  (word) mul8u::res#3 ← phi( mul8u::@2/(word) mul8u::res#5 )
  (word~) mul8u::$4 ← (word) mul8u::res#3 + (word) mul8u::mb#3
  (word) mul8u::res#1 ← (word~) mul8u::$4
  to:mul8u::@4
mul8u::@return: scope:[mul8u]  from mul8u::@3
  (word) mul8u::return#4 ← phi( mul8u::@3/(word) mul8u::return#0 )
  (word) mul8u::return#1 ← (word) mul8u::return#4
  return 
  to:@return

(void()) main()
main: scope:[main]  from __start
  (word*) main::screen#0 ← (word*)(number) $400
  (byte) main::y#0 ← (byte) 0
  to:main::@1
main::@1: scope:[main]  from main main::@3
  (word*) main::screen#5 ← phi( main/(word*) main::screen#0 main::@3/(word*) main::screen#2 )
  (byte) main::y#2 ← phi( main/(byte) main::y#0 main::@3/(byte) main::y#1 )
  (byte) mul8u::a#1 ← (byte) main::y#2
  (byte) mul8u::b#0 ← (number) $28
  call mul8u 
  (word) mul8u::return#2 ← (word) mul8u::return#1
  to:main::@2
main::@2: scope:[main]  from main::@1
  (byte) main::y#3 ← phi( main::@1/(byte) main::y#2 )
  (word*) main::screen#3 ← phi( main::@1/(word*) main::screen#5 )
  (word) mul8u::return#5 ← phi( main::@1/(word) mul8u::return#2 )
  (word~) main::$0 ← (word) mul8u::return#5
  (word) main::z1#0 ← (word~) main::$0
  *((word*) main::screen#3) ← (word) main::z1#0
  (word*) main::screen#1 ← (word*) main::screen#3 + (const byte) SIZEOF_WORD
  (byte) mul8u::a#2 ← (byte) main::y#3
  (byte) mul8u::b#1 ← (number) $28
  call mul8u 
  (word) mul8u::return#3 ← (word) mul8u::return#1
  to:main::@3
main::@3: scope:[main]  from main::@2
  (byte) main::y#4 ← phi( main::@2/(byte) main::y#3 )
  (word*) main::screen#4 ← phi( main::@2/(word*) main::screen#1 )
  (word) mul8u::return#6 ← phi( main::@2/(word) mul8u::return#3 )
  (word~) main::$1 ← (word) mul8u::return#6
  (word) main::z2#0 ← (word~) main::$1
  *((word*) main::screen#4) ← (word) main::z2#0
  (word*) main::screen#2 ← (word*) main::screen#4 + (const byte) SIZEOF_WORD
  (byte) main::y#1 ← (byte) main::y#4 + rangenext(0,5)
  (bool~) main::$2 ← (byte) main::y#1 != rangelast(0,5)
  if((bool~) main::$2) goto main::@1
  to:main::@return
main::@return: scope:[main]  from main::@3
  return 
  to:@return

(void()) __start()
__start: scope:[__start]  from
  call main 
  to:__start::@1
__start::@1: scope:[__start]  from __start
  to:__start::@return
__start::@return: scope:[__start]  from __start::@1
  return 
  to:@return

SYMBOL TABLE SSA
(const byte) SIZEOF_WORD = (byte) 2
(void()) __start()
(label) __start::@1
(label) __start::@return
(void()) main()
(word~) main::$0
(word~) main::$1
(bool~) main::$2
(label) main::@1
(label) main::@2
(label) main::@3
(label) main::@return
(word*) main::screen
(word*) main::screen#0
(word*) main::screen#1
(word*) main::screen#2
(word*) main::screen#3
(word*) main::screen#4
(word*) main::screen#5
(byte) main::y
(byte) main::y#0
(byte) main::y#1
(byte) main::y#2
(byte) main::y#3
(byte) main::y#4
(word) main::z1
(word) main::z1#0
(word) main::z2
(word) main::z2#0
(word()) mul8u((byte) mul8u::a , (byte) mul8u::b)
(bool~) mul8u::$0
(number~) mul8u::$1
(bool~) mul8u::$2
(bool~) mul8u::$3
(word~) mul8u::$4
(byte~) mul8u::$5
(word~) mul8u::$6
(label) mul8u::@1
(label) mul8u::@2
(label) mul8u::@3
(label) mul8u::@4
(label) mul8u::@5
(label) mul8u::@return
(byte) mul8u::a
(byte) mul8u::a#0
(byte) mul8u::a#1
(byte) mul8u::a#2
(byte) mul8u::a#3
(byte) mul8u::a#4
(byte) mul8u::a#5
(byte) mul8u::a#6
(byte) mul8u::a#7
(byte) mul8u::b
(byte) mul8u::b#0
(byte) mul8u::b#1
(byte) mul8u::b#2
(word) mul8u::mb
(word) mul8u::mb#0
(word) mul8u::mb#1
(word) mul8u::mb#2
(word) mul8u::mb#3
(word) mul8u::mb#4
(word) mul8u::mb#5
(word) mul8u::res
(word) mul8u::res#0
(word) mul8u::res#1
(word) mul8u::res#2
(word) mul8u::res#3
(word) mul8u::res#4
(word) mul8u::res#5
(word) mul8u::res#6
(word) mul8u::return
(word) mul8u::return#0
(word) mul8u::return#1
(word) mul8u::return#2
(word) mul8u::return#3
(word) mul8u::return#4
(word) mul8u::return#5
(word) mul8u::return#6

Adding number conversion cast (unumber) 0 in (bool~) mul8u::$0 ← (byte) mul8u::a#3 != (number) 0
Adding number conversion cast (unumber) 1 in (number~) mul8u::$1 ← (byte) mul8u::a#4 & (number) 1
Adding number conversion cast (unumber) mul8u::$1 in (number~) mul8u::$1 ← (byte) mul8u::a#4 & (unumber)(number) 1
Adding number conversion cast (unumber) 0 in (bool~) mul8u::$2 ← (unumber~) mul8u::$1 != (number) 0
Adding number conversion cast (unumber) 1 in (byte~) mul8u::$5 ← (byte) mul8u::a#5 >> (number) 1
Adding number conversion cast (unumber) 1 in (word~) mul8u::$6 ← (word) mul8u::mb#2 << (number) 1
Adding number conversion cast (unumber) $28 in (byte) mul8u::b#0 ← (number) $28
Adding number conversion cast (unumber) $28 in (byte) mul8u::b#1 ← (number) $28
Successful SSA optimization PassNAddNumberTypeConversions
Inlining cast (byte) mul8u::b#0 ← (unumber)(number) $28
Inlining cast (byte) mul8u::b#1 ← (unumber)(number) $28
Successful SSA optimization Pass2InlineCast
Simplifying constant integer cast 0
Simplifying constant integer cast 1
Simplifying constant integer cast 0
Simplifying constant integer cast 1
Simplifying constant integer cast 1
Simplifying constant pointer cast (word*) 1024
Simplifying constant integer cast $28
Simplifying constant integer cast $28
Successful SSA optimization PassNCastSimplification
Finalized unsigned number type (byte) 0
Finalized unsigned number type (byte) 1
Finalized unsigned number type (byte) 0
Finalized unsigned number type (byte) 1
Finalized unsigned number type (byte) 1
Finalized unsigned number type (byte) $28
Finalized unsigned number type (byte) $28
Successful SSA optimization PassNFinalizeNumberTypeConversions
Inferred type updated to byte in (unumber~) mul8u::$1 ← (byte) mul8u::a#4 & (byte) 1
Inversing boolean not [9] (bool~) mul8u::$3 ← (byte~) mul8u::$1 == (byte) 0 from [8] (bool~) mul8u::$2 ← (byte~) mul8u::$1 != (byte) 0
Successful SSA optimization Pass2UnaryNotSimplification
Alias mul8u::a#3 = mul8u::a#4 mul8u::a#7 
Alias mul8u::mb#3 = mul8u::mb#4 mul8u::mb#5 
Alias mul8u::res#2 = mul8u::res#5 mul8u::res#4 mul8u::return#0 mul8u::res#3 mul8u::return#4 mul8u::return#1 
Alias mul8u::a#0 = mul8u::$5 
Alias mul8u::mb#1 = mul8u::$6 
Alias mul8u::res#1 = mul8u::$4 
Alias mul8u::return#2 = mul8u::return#5 
Alias main::screen#3 = main::screen#5 
Alias main::y#2 = main::y#3 main::y#4 
Alias main::z1#0 = main::$0 
Alias mul8u::return#3 = mul8u::return#6 
Alias main::screen#1 = main::screen#4 
Alias main::z2#0 = main::$1 
Successful SSA optimization Pass2AliasElimination
Alias mul8u::a#3 = mul8u::a#5 
Alias mul8u::mb#2 = mul8u::mb#3 
Successful SSA optimization Pass2AliasElimination
Simple Condition (bool~) mul8u::$0 [5] if((byte) mul8u::a#3!=(byte) 0) goto mul8u::@2
Simple Condition (bool~) mul8u::$3 [8] if((byte~) mul8u::$1==(byte) 0) goto mul8u::@4
Simple Condition (bool~) main::$2 [33] if((byte) main::y#1!=rangelast(0,5)) goto main::@1
Successful SSA optimization Pass2ConditionalJumpSimplification
Constant (const word) mul8u::res#0 = 0
Constant (const word*) main::screen#0 = (word*) 1024
Constant (const byte) main::y#0 = 0
Constant (const byte) mul8u::b#0 = $28
Constant (const byte) mul8u::b#1 = $28
Successful SSA optimization Pass2ConstantIdentification
Resolved ranged next value [31] main::y#1 ← ++ main::y#2 to ++
Resolved ranged comparison value [33] if(main::y#1!=rangelast(0,5)) goto main::@1 to (number) 6
Converting *(pointer+n) to pointer[n] [29] *((word*) main::screen#1) ← (word) main::z2#0  -- *(main::screen#3 + SIZEOF_WORD)
Successful SSA optimization Pass2InlineDerefIdx
Removing unused procedure __start
Removing unused procedure block __start
Removing unused procedure block __start::@1
Removing unused procedure block __start::@return
Successful SSA optimization PassNEliminateEmptyStart
Adding number conversion cast (unumber) 6 in [25] if((byte) main::y#1!=(number) 6) goto main::@1
Successful SSA optimization PassNAddNumberTypeConversions
Simplifying constant integer cast 6
Successful SSA optimization PassNCastSimplification
Finalized unsigned number type (byte) 6
Successful SSA optimization PassNFinalizeNumberTypeConversions
Inlining constant with var siblings (const word) mul8u::res#0
Inlining constant with var siblings (const byte) mul8u::b#0
Inlining constant with var siblings (const byte) mul8u::b#1
Inlining constant with var siblings (const word*) main::screen#0
Inlining constant with var siblings (const byte) main::y#0
Constant inlined main::screen#0 = (word*) 1024
Constant inlined mul8u::res#0 = (word) 0
Constant inlined main::y#0 = (byte) 0
Constant inlined mul8u::b#1 = (byte) $28
Constant inlined mul8u::b#0 = (byte) $28
Successful SSA optimization Pass2ConstantInlining
Consolidated constant in assignment main::screen#2
Successful SSA optimization Pass2ConstantAdditionElimination
Alias main::screen#1 = main::screen#3 
Successful SSA optimization Pass2AliasElimination
Identical Phi Values (byte) mul8u::b#2 (byte) $28
Successful SSA optimization Pass2IdenticalPhiElimination
Constant right-side identified [1] (word) mul8u::mb#0 ← (word)(byte) $28
Successful SSA optimization Pass2ConstantRValueConsolidation
Constant (const word) mul8u::mb#0 = (word)$28
Successful SSA optimization Pass2ConstantIdentification
Inlining constant with var siblings (const word) mul8u::mb#0
Constant inlined mul8u::mb#0 = (word)(byte) $28
Successful SSA optimization Pass2ConstantInlining
Simplifying constant integer cast $28
Successful SSA optimization PassNCastSimplification
Added new block during phi lifting mul8u::@6(between mul8u::@2 and mul8u::@4)
Added new block during phi lifting main::@4(between main::@3 and main::@1)
Adding NOP phi() at start of main
Adding NOP phi() at start of mul8u::@3
CALL GRAPH
Calls in [main] to mul8u:4 mul8u:10 

Created 7 initial phi equivalence classes
Coalesced [3] mul8u::a#8 ← mul8u::a#1
Coalesced [9] mul8u::a#9 ← mul8u::a#2
Coalesced [18] main::y#5 ← main::y#1
Coalesced [19] main::screen#6 ← main::screen#2
Coalesced [21] mul8u::a#10 ← mul8u::a#6
Coalesced [29] mul8u::res#9 ← mul8u::res#1
Coalesced [33] mul8u::a#11 ← mul8u::a#0
Coalesced [34] mul8u::res#7 ← mul8u::res#6
Coalesced [35] mul8u::mb#6 ← mul8u::mb#1
Coalesced (already) [36] mul8u::res#8 ← mul8u::res#2
Coalesced down to 5 phi equivalence classes
Culled Empty Block (label) main::@4
Culled Empty Block (label) mul8u::@3
Culled Empty Block (label) mul8u::@6
Renumbering block mul8u::@4 to mul8u::@3
Renumbering block mul8u::@5 to mul8u::@4
Adding NOP phi() at start of main

FINAL CONTROL FLOW GRAPH

(void()) main()
main: scope:[main]  from
  [0] phi()
  to:main::@1
main::@1: scope:[main]  from main main::@3
  [1] (word*) main::screen#1 ← phi( main/(word*) 1024 main::@3/(word*) main::screen#2 )
  [1] (byte) main::y#2 ← phi( main/(byte) 0 main::@3/(byte) main::y#1 )
  [2] (byte) mul8u::a#1 ← (byte) main::y#2
  [3] call mul8u 
  [4] (word) mul8u::return#2 ← (word) mul8u::res#2
  to:main::@2
main::@2: scope:[main]  from main::@1
  [5] (word) main::z1#0 ← (word) mul8u::return#2
  [6] *((word*) main::screen#1) ← (word) main::z1#0
  [7] (byte) mul8u::a#2 ← (byte) main::y#2
  [8] call mul8u 
  [9] (word) mul8u::return#3 ← (word) mul8u::res#2
  to:main::@3
main::@3: scope:[main]  from main::@2
  [10] (word) main::z2#0 ← (word) mul8u::return#3
  [11] *((word*) main::screen#1 + (const byte) SIZEOF_WORD) ← (word) main::z2#0
  [12] (word*) main::screen#2 ← (word*) main::screen#1 + (const byte) SIZEOF_WORD+(const byte) SIZEOF_WORD
  [13] (byte) main::y#1 ← ++ (byte) main::y#2
  [14] if((byte) main::y#1!=(byte) 6) goto main::@1
  to:main::@return
main::@return: scope:[main]  from main::@3
  [15] return 
  to:@return

(word()) mul8u((byte) mul8u::a , (byte) mul8u::b)
mul8u: scope:[mul8u]  from main::@1 main::@2
  [16] (byte) mul8u::a#6 ← phi( main::@1/(byte) mul8u::a#1 main::@2/(byte) mul8u::a#2 )
  to:mul8u::@1
mul8u::@1: scope:[mul8u]  from mul8u mul8u::@3
  [17] (word) mul8u::mb#2 ← phi( mul8u/(word) $28 mul8u::@3/(word) mul8u::mb#1 )
  [17] (word) mul8u::res#2 ← phi( mul8u/(word) 0 mul8u::@3/(word) mul8u::res#6 )
  [17] (byte) mul8u::a#3 ← phi( mul8u/(byte) mul8u::a#6 mul8u::@3/(byte) mul8u::a#0 )
  [18] if((byte) mul8u::a#3!=(byte) 0) goto mul8u::@2
  to:mul8u::@return
mul8u::@return: scope:[mul8u]  from mul8u::@1
  [19] return 
  to:@return
mul8u::@2: scope:[mul8u]  from mul8u::@1
  [20] (byte~) mul8u::$1 ← (byte) mul8u::a#3 & (byte) 1
  [21] if((byte~) mul8u::$1==(byte) 0) goto mul8u::@3
  to:mul8u::@4
mul8u::@4: scope:[mul8u]  from mul8u::@2
  [22] (word) mul8u::res#1 ← (word) mul8u::res#2 + (word) mul8u::mb#2
  to:mul8u::@3
mul8u::@3: scope:[mul8u]  from mul8u::@2 mul8u::@4
  [23] (word) mul8u::res#6 ← phi( mul8u::@2/(word) mul8u::res#2 mul8u::@4/(word) mul8u::res#1 )
  [24] (byte) mul8u::a#0 ← (byte) mul8u::a#3 >> (byte) 1
  [25] (word) mul8u::mb#1 ← (word) mul8u::mb#2 << (byte) 1
  to:mul8u::@1


VARIABLE REGISTER WEIGHTS
(void()) main()
(word*) main::screen
(word*) main::screen#1 4.0
(word*) main::screen#2 7.333333333333333
(byte) main::y
(byte) main::y#1 16.5
(byte) main::y#2 3.6666666666666665
(word) main::z1
(word) main::z1#0 22.0
(word) main::z2
(word) main::z2#0 22.0
(word()) mul8u((byte) mul8u::a , (byte) mul8u::b)
(byte~) mul8u::$1 20002.0
(byte) mul8u::a
(byte) mul8u::a#0 10001.0
(byte) mul8u::a#1 22.0
(byte) mul8u::a#2 22.0
(byte) mul8u::a#3 6684.166666666666
(byte) mul8u::a#6 123.0
(byte) mul8u::b
(word) mul8u::mb
(word) mul8u::mb#1 20002.0
(word) mul8u::mb#2 4286.142857142857
(word) mul8u::res
(word) mul8u::res#1 20002.0
(word) mul8u::res#2 4289.285714285714
(word) mul8u::res#6 10001.0
(word) mul8u::return
(word) mul8u::return#2 22.0
(word) mul8u::return#3 22.0

Initial phi equivalence classes
[ main::y#2 main::y#1 ]
[ main::screen#1 main::screen#2 ]
[ mul8u::a#3 mul8u::a#6 mul8u::a#1 mul8u::a#2 mul8u::a#0 ]
[ mul8u::res#2 mul8u::res#6 mul8u::res#1 ]
[ mul8u::mb#2 mul8u::mb#1 ]
Added variable mul8u::return#2 to live range equivalence class [ mul8u::return#2 ]
Added variable main::z1#0 to live range equivalence class [ main::z1#0 ]
Added variable mul8u::return#3 to live range equivalence class [ mul8u::return#3 ]
Added variable main::z2#0 to live range equivalence class [ main::z2#0 ]
Added variable mul8u::$1 to live range equivalence class [ mul8u::$1 ]
Complete equivalence classes
[ main::y#2 main::y#1 ]
[ main::screen#1 main::screen#2 ]
[ mul8u::a#3 mul8u::a#6 mul8u::a#1 mul8u::a#2 mul8u::a#0 ]
[ mul8u::res#2 mul8u::res#6 mul8u::res#1 ]
[ mul8u::mb#2 mul8u::mb#1 ]
[ mul8u::return#2 ]
[ main::z1#0 ]
[ mul8u::return#3 ]
[ main::z2#0 ]
[ mul8u::$1 ]
Allocated zp[1]:2 [ main::y#2 main::y#1 ]
Allocated zp[2]:3 [ main::screen#1 main::screen#2 ]
Allocated zp[1]:5 [ mul8u::a#3 mul8u::a#6 mul8u::a#1 mul8u::a#2 mul8u::a#0 ]
Allocated zp[2]:6 [ mul8u::res#2 mul8u::res#6 mul8u::res#1 ]
Allocated zp[2]:8 [ mul8u::mb#2 mul8u::mb#1 ]
Allocated zp[2]:10 [ mul8u::return#2 ]
Allocated zp[2]:12 [ main::z1#0 ]
Allocated zp[2]:14 [ mul8u::return#3 ]
Allocated zp[2]:16 [ main::z2#0 ]
Allocated zp[1]:18 [ mul8u::$1 ]

INITIAL ASM
Target platform is c64basic / MOS6502X
  // File Comments
// Simple binary multiplication implementation
  // Upstart
.pc = $801 "Basic"
:BasicUpstart(main)
.pc = $80d "Program"
  // Global Constants & labels
  .const SIZEOF_WORD = 2
  // main
main: {
    .label z1 = $c
    .label screen = 3
    .label z2 = $10
    .label y = 2
    // [1] phi from main to main::@1 [phi:main->main::@1]
  __b1_from_main:
    // [1] phi (word*) main::screen#1 = (word*) 1024 [phi:main->main::@1#0] -- pwuz1=pwuc1 
    lda #<$400
    sta.z screen
    lda #>$400
    sta.z screen+1
    // [1] phi (byte) main::y#2 = (byte) 0 [phi:main->main::@1#1] -- vbuz1=vbuc1 
    lda #0
    sta.z y
    jmp __b1
    // [1] phi from main::@3 to main::@1 [phi:main::@3->main::@1]
  __b1_from___b3:
    // [1] phi (word*) main::screen#1 = (word*) main::screen#2 [phi:main::@3->main::@1#0] -- register_copy 
    // [1] phi (byte) main::y#2 = (byte) main::y#1 [phi:main::@3->main::@1#1] -- register_copy 
    jmp __b1
    // main::@1
  __b1:
    // [2] (byte) mul8u::a#1 ← (byte) main::y#2 -- vbuz1=vbuz2 
    lda.z y
    sta.z mul8u.a
    // [3] call mul8u 
    // [16] phi from main::@1 to mul8u [phi:main::@1->mul8u]
  mul8u_from___b1:
    // [16] phi (byte) mul8u::a#6 = (byte) mul8u::a#1 [phi:main::@1->mul8u#0] -- register_copy 
    jsr mul8u
    // [4] (word) mul8u::return#2 ← (word) mul8u::res#2 -- vwuz1=vwuz2 
    lda.z mul8u.res
    sta.z mul8u.return
    lda.z mul8u.res+1
    sta.z mul8u.return+1
    jmp __b2
    // main::@2
  __b2:
    // [5] (word) main::z1#0 ← (word) mul8u::return#2 -- vwuz1=vwuz2 
    lda.z mul8u.return
    sta.z z1
    lda.z mul8u.return+1
    sta.z z1+1
    // [6] *((word*) main::screen#1) ← (word) main::z1#0 -- _deref_pwuz1=vwuz2 
    ldy #0
    lda.z z1
    sta (screen),y
    iny
    lda.z z1+1
    sta (screen),y
    // [7] (byte) mul8u::a#2 ← (byte) main::y#2 -- vbuz1=vbuz2 
    lda.z y
    sta.z mul8u.a
    // [8] call mul8u 
    // [16] phi from main::@2 to mul8u [phi:main::@2->mul8u]
  mul8u_from___b2:
    // [16] phi (byte) mul8u::a#6 = (byte) mul8u::a#2 [phi:main::@2->mul8u#0] -- register_copy 
    jsr mul8u
    // [9] (word) mul8u::return#3 ← (word) mul8u::res#2 -- vwuz1=vwuz2 
    lda.z mul8u.res
    sta.z mul8u.return_1
    lda.z mul8u.res+1
    sta.z mul8u.return_1+1
    jmp __b3
    // main::@3
  __b3:
    // [10] (word) main::z2#0 ← (word) mul8u::return#3 -- vwuz1=vwuz2 
    lda.z mul8u.return_1
    sta.z z2
    lda.z mul8u.return_1+1
    sta.z z2+1
    // [11] *((word*) main::screen#1 + (const byte) SIZEOF_WORD) ← (word) main::z2#0 -- pwuz1_derefidx_vbuc1=vwuz2 
    ldy #SIZEOF_WORD
    lda.z z2
    sta (screen),y
    iny
    lda.z z2+1
    sta (screen),y
    // [12] (word*) main::screen#2 ← (word*) main::screen#1 + (const byte) SIZEOF_WORD+(const byte) SIZEOF_WORD -- pwuz1=pwuz1_plus_vbuc1 
    lda #SIZEOF_WORD+SIZEOF_WORD
    clc
    adc.z screen
    sta.z screen
    bcc !+
    inc.z screen+1
  !:
    // [13] (byte) main::y#1 ← ++ (byte) main::y#2 -- vbuz1=_inc_vbuz1 
    inc.z y
    // [14] if((byte) main::y#1!=(byte) 6) goto main::@1 -- vbuz1_neq_vbuc1_then_la1 
    lda #6
    cmp.z y
    bne __b1_from___b3
    jmp __breturn
    // main::@return
  __breturn:
    // [15] return 
    rts
}
  // mul8u
// Perform binary multiplication of two unsigned 8-bit chars into a 16-bit unsigned int
// mul8u(byte zp(5) a)
mul8u: {
    .label __1 = $12
    .label a = 5
    .label mb = 8
    .label res = 6
    .label return = $a
    .label return_1 = $e
    // [17] phi from mul8u to mul8u::@1 [phi:mul8u->mul8u::@1]
  __b1_from_mul8u:
    // [17] phi (word) mul8u::mb#2 = (word) $28 [phi:mul8u->mul8u::@1#0] -- vwuz1=vwuc1 
    lda #<$28
    sta.z mb
    lda #>$28
    sta.z mb+1
    // [17] phi (word) mul8u::res#2 = (word) 0 [phi:mul8u->mul8u::@1#1] -- vwuz1=vwuc1 
    lda #<0
    sta.z res
    lda #>0
    sta.z res+1
    // [17] phi (byte) mul8u::a#3 = (byte) mul8u::a#6 [phi:mul8u->mul8u::@1#2] -- register_copy 
    jmp __b1
    // mul8u::@1
  __b1:
    // [18] if((byte) mul8u::a#3!=(byte) 0) goto mul8u::@2 -- vbuz1_neq_0_then_la1 
    lda.z a
    cmp #0
    bne __b2
    jmp __breturn
    // mul8u::@return
  __breturn:
    // [19] return 
    rts
    // mul8u::@2
  __b2:
    // [20] (byte~) mul8u::$1 ← (byte) mul8u::a#3 & (byte) 1 -- vbuz1=vbuz2_band_vbuc1 
    lda #1
    and.z a
    sta.z __1
    // [21] if((byte~) mul8u::$1==(byte) 0) goto mul8u::@3 -- vbuz1_eq_0_then_la1 
    lda.z __1
    cmp #0
    beq __b3_from___b2
    jmp __b4
    // mul8u::@4
  __b4:
    // [22] (word) mul8u::res#1 ← (word) mul8u::res#2 + (word) mul8u::mb#2 -- vwuz1=vwuz1_plus_vwuz2 
    lda.z res
    clc
    adc.z mb
    sta.z res
    lda.z res+1
    adc.z mb+1
    sta.z res+1
    // [23] phi from mul8u::@2 mul8u::@4 to mul8u::@3 [phi:mul8u::@2/mul8u::@4->mul8u::@3]
  __b3_from___b2:
  __b3_from___b4:
    // [23] phi (word) mul8u::res#6 = (word) mul8u::res#2 [phi:mul8u::@2/mul8u::@4->mul8u::@3#0] -- register_copy 
    jmp __b3
    // mul8u::@3
  __b3:
    // [24] (byte) mul8u::a#0 ← (byte) mul8u::a#3 >> (byte) 1 -- vbuz1=vbuz1_ror_1 
    lsr.z a
    // [25] (word) mul8u::mb#1 ← (word) mul8u::mb#2 << (byte) 1 -- vwuz1=vwuz1_rol_1 
    asl.z mb
    rol.z mb+1
    // [17] phi from mul8u::@3 to mul8u::@1 [phi:mul8u::@3->mul8u::@1]
  __b1_from___b3:
    // [17] phi (word) mul8u::mb#2 = (word) mul8u::mb#1 [phi:mul8u::@3->mul8u::@1#0] -- register_copy 
    // [17] phi (word) mul8u::res#2 = (word) mul8u::res#6 [phi:mul8u::@3->mul8u::@1#1] -- register_copy 
    // [17] phi (byte) mul8u::a#3 = (byte) mul8u::a#0 [phi:mul8u::@3->mul8u::@1#2] -- register_copy 
    jmp __b1
}
  // File Data

REGISTER UPLIFT POTENTIAL REGISTERS
Statement [4] (word) mul8u::return#2 ← (word) mul8u::res#2 [ main::y#2 main::screen#1 mul8u::return#2 ] (  [ main::y#2 main::screen#1 mul8u::return#2 ] { { mul8u::a#1 = mul8u::a#6 main::y#2 } { mul8u::return#2 = mul8u::res#2 } }  ) always clobbers reg byte a 
Removing always clobbered register reg byte a as potential for zp[1]:2 [ main::y#2 main::y#1 ]
Statement [5] (word) main::z1#0 ← (word) mul8u::return#2 [ main::y#2 main::screen#1 main::z1#0 ] (  [ main::y#2 main::screen#1 main::z1#0 ] { { mul8u::a#2 = mul8u::a#6 main::y#2 } { mul8u::return#3 = mul8u::res#2 } }  ) always clobbers reg byte a 
Statement [6] *((word*) main::screen#1) ← (word) main::z1#0 [ main::y#2 main::screen#1 ] (  [ main::y#2 main::screen#1 ] { { mul8u::a#2 = mul8u::a#6 main::y#2 } { mul8u::return#3 = mul8u::res#2 } }  ) always clobbers reg byte a reg byte y 
Removing always clobbered register reg byte y as potential for zp[1]:2 [ main::y#2 main::y#1 ]
Statement [9] (word) mul8u::return#3 ← (word) mul8u::res#2 [ main::y#2 main::screen#1 mul8u::return#3 ] (  [ main::y#2 main::screen#1 mul8u::return#3 ] { { mul8u::a#2 = mul8u::a#6 main::y#2 } { mul8u::return#3 = mul8u::res#2 } }  ) always clobbers reg byte a 
Statement [10] (word) main::z2#0 ← (word) mul8u::return#3 [ main::y#2 main::screen#1 main::z2#0 ] (  [ main::y#2 main::screen#1 main::z2#0 ] { }  ) always clobbers reg byte a 
Statement [11] *((word*) main::screen#1 + (const byte) SIZEOF_WORD) ← (word) main::z2#0 [ main::y#2 main::screen#1 ] (  [ main::y#2 main::screen#1 ] { }  ) always clobbers reg byte a reg byte y 
Statement [12] (word*) main::screen#2 ← (word*) main::screen#1 + (const byte) SIZEOF_WORD+(const byte) SIZEOF_WORD [ main::y#2 main::screen#2 ] (  [ main::y#2 main::screen#2 ] { }  ) always clobbers reg byte a 
Statement [22] (word) mul8u::res#1 ← (word) mul8u::res#2 + (word) mul8u::mb#2 [ mul8u::a#3 mul8u::mb#2 mul8u::res#1 ] ( mul8u:3 [ main::y#2 main::screen#1 mul8u::a#3 mul8u::mb#2 mul8u::res#1 ] { { mul8u::a#1 = mul8u::a#6 main::y#2 } { mul8u::return#2 = mul8u::res#2 } }  mul8u:8 [ main::y#2 main::screen#1 mul8u::a#3 mul8u::mb#2 mul8u::res#1 ] { { mul8u::a#2 = mul8u::a#6 main::y#2 } { mul8u::return#3 = mul8u::res#2 } }  ) always clobbers reg byte a 
Removing always clobbered register reg byte a as potential for zp[1]:5 [ mul8u::a#3 mul8u::a#6 mul8u::a#1 mul8u::a#2 mul8u::a#0 ]
Statement [4] (word) mul8u::return#2 ← (word) mul8u::res#2 [ main::y#2 main::screen#1 mul8u::return#2 ] (  [ main::y#2 main::screen#1 mul8u::return#2 ] { { mul8u::a#1 = mul8u::a#6 main::y#2 } { mul8u::return#2 = mul8u::res#2 } }  ) always clobbers reg byte a 
Statement [5] (word) main::z1#0 ← (word) mul8u::return#2 [ main::y#2 main::screen#1 main::z1#0 ] (  [ main::y#2 main::screen#1 main::z1#0 ] { { mul8u::a#2 = mul8u::a#6 main::y#2 } { mul8u::return#3 = mul8u::res#2 } }  ) always clobbers reg byte a 
Statement [6] *((word*) main::screen#1) ← (word) main::z1#0 [ main::y#2 main::screen#1 ] (  [ main::y#2 main::screen#1 ] { { mul8u::a#2 = mul8u::a#6 main::y#2 } { mul8u::return#3 = mul8u::res#2 } }  ) always clobbers reg byte a reg byte y 
Statement [9] (word) mul8u::return#3 ← (word) mul8u::res#2 [ main::y#2 main::screen#1 mul8u::return#3 ] (  [ main::y#2 main::screen#1 mul8u::return#3 ] { { mul8u::a#2 = mul8u::a#6 main::y#2 } { mul8u::return#3 = mul8u::res#2 } }  ) always clobbers reg byte a 
Statement [10] (word) main::z2#0 ← (word) mul8u::return#3 [ main::y#2 main::screen#1 main::z2#0 ] (  [ main::y#2 main::screen#1 main::z2#0 ] { }  ) always clobbers reg byte a 
Statement [11] *((word*) main::screen#1 + (const byte) SIZEOF_WORD) ← (word) main::z2#0 [ main::y#2 main::screen#1 ] (  [ main::y#2 main::screen#1 ] { }  ) always clobbers reg byte a reg byte y 
Statement [12] (word*) main::screen#2 ← (word*) main::screen#1 + (const byte) SIZEOF_WORD+(const byte) SIZEOF_WORD [ main::y#2 main::screen#2 ] (  [ main::y#2 main::screen#2 ] { }  ) always clobbers reg byte a 
Statement [20] (byte~) mul8u::$1 ← (byte) mul8u::a#3 & (byte) 1 [ mul8u::res#2 mul8u::a#3 mul8u::mb#2 mul8u::$1 ] ( mul8u:3 [ main::y#2 main::screen#1 mul8u::res#2 mul8u::a#3 mul8u::mb#2 mul8u::$1 ] { { mul8u::a#1 = mul8u::a#6 main::y#2 } { mul8u::return#2 = mul8u::res#2 } }  mul8u:8 [ main::y#2 main::screen#1 mul8u::res#2 mul8u::a#3 mul8u::mb#2 mul8u::$1 ] { { mul8u::a#2 = mul8u::a#6 main::y#2 } { mul8u::return#3 = mul8u::res#2 } }  ) always clobbers reg byte a 
Statement [22] (word) mul8u::res#1 ← (word) mul8u::res#2 + (word) mul8u::mb#2 [ mul8u::a#3 mul8u::mb#2 mul8u::res#1 ] ( mul8u:3 [ main::y#2 main::screen#1 mul8u::a#3 mul8u::mb#2 mul8u::res#1 ] { { mul8u::a#1 = mul8u::a#6 main::y#2 } { mul8u::return#2 = mul8u::res#2 } }  mul8u:8 [ main::y#2 main::screen#1 mul8u::a#3 mul8u::mb#2 mul8u::res#1 ] { { mul8u::a#2 = mul8u::a#6 main::y#2 } { mul8u::return#3 = mul8u::res#2 } }  ) always clobbers reg byte a 
Potential registers zp[1]:2 [ main::y#2 main::y#1 ] : zp[1]:2 , reg byte x , 
Potential registers zp[2]:3 [ main::screen#1 main::screen#2 ] : zp[2]:3 , 
Potential registers zp[1]:5 [ mul8u::a#3 mul8u::a#6 mul8u::a#1 mul8u::a#2 mul8u::a#0 ] : zp[1]:5 , reg byte x , reg byte y , 
Potential registers zp[2]:6 [ mul8u::res#2 mul8u::res#6 mul8u::res#1 ] : zp[2]:6 , 
Potential registers zp[2]:8 [ mul8u::mb#2 mul8u::mb#1 ] : zp[2]:8 , 
Potential registers zp[2]:10 [ mul8u::return#2 ] : zp[2]:10 , 
Potential registers zp[2]:12 [ main::z1#0 ] : zp[2]:12 , 
Potential registers zp[2]:14 [ mul8u::return#3 ] : zp[2]:14 , 
Potential registers zp[2]:16 [ main::z2#0 ] : zp[2]:16 , 
Potential registers zp[1]:18 [ mul8u::$1 ] : zp[1]:18 , reg byte a , reg byte x , reg byte y , 

REGISTER UPLIFT SCOPES
Uplift Scope [mul8u] 34,292.29: zp[2]:6 [ mul8u::res#2 mul8u::res#6 mul8u::res#1 ] 24,288.14: zp[2]:8 [ mul8u::mb#2 mul8u::mb#1 ] 20,002: zp[1]:18 [ mul8u::$1 ] 16,852.17: zp[1]:5 [ mul8u::a#3 mul8u::a#6 mul8u::a#1 mul8u::a#2 mul8u::a#0 ] 22: zp[2]:10 [ mul8u::return#2 ] 22: zp[2]:14 [ mul8u::return#3 ] 
Uplift Scope [main] 22: zp[2]:12 [ main::z1#0 ] 22: zp[2]:16 [ main::z2#0 ] 20.17: zp[1]:2 [ main::y#2 main::y#1 ] 11.33: zp[2]:3 [ main::screen#1 main::screen#2 ] 
Uplift Scope [] 

Uplifting [mul8u] best 10004 combination zp[2]:6 [ mul8u::res#2 mul8u::res#6 mul8u::res#1 ] zp[2]:8 [ mul8u::mb#2 mul8u::mb#1 ] reg byte a [ mul8u::$1 ] reg byte x [ mul8u::a#3 mul8u::a#6 mul8u::a#1 mul8u::a#2 mul8u::a#0 ] zp[2]:10 [ mul8u::return#2 ] zp[2]:14 [ mul8u::return#3 ] 
Uplifting [main] best 10004 combination zp[2]:12 [ main::z1#0 ] zp[2]:16 [ main::z2#0 ] zp[1]:2 [ main::y#2 main::y#1 ] zp[2]:3 [ main::screen#1 main::screen#2 ] 
Uplifting [] best 10004 combination 
Attempting to uplift remaining variables inzp[1]:2 [ main::y#2 main::y#1 ]
Uplifting [main] best 10004 combination zp[1]:2 [ main::y#2 main::y#1 ] 
Coalescing zero page register [ zp[2]:6 [ mul8u::res#2 mul8u::res#6 mul8u::res#1 ] ] with [ zp[2]:10 [ mul8u::return#2 ] ] - score: 1
Coalescing zero page register [ zp[2]:6 [ mul8u::res#2 mul8u::res#6 mul8u::res#1 mul8u::return#2 ] ] with [ zp[2]:14 [ mul8u::return#3 ] ] - score: 1
Coalescing zero page register [ zp[2]:6 [ mul8u::res#2 mul8u::res#6 mul8u::res#1 mul8u::return#2 mul8u::return#3 ] ] with [ zp[2]:12 [ main::z1#0 ] ] - score: 1
Coalescing zero page register [ zp[2]:6 [ mul8u::res#2 mul8u::res#6 mul8u::res#1 mul8u::return#2 mul8u::return#3 main::z1#0 ] ] with [ zp[2]:16 [ main::z2#0 ] ] - score: 1
Allocated (was zp[2]:6) zp[2]:5 [ mul8u::res#2 mul8u::res#6 mul8u::res#1 mul8u::return#2 mul8u::return#3 main::z1#0 main::z2#0 ]
Allocated (was zp[2]:8) zp[2]:7 [ mul8u::mb#2 mul8u::mb#1 ]

ASSEMBLER BEFORE OPTIMIZATION
  // File Comments
// Simple binary multiplication implementation
  // Upstart
.pc = $801 "Basic"
:BasicUpstart(main)
.pc = $80d "Program"
  // Global Constants & labels
  .const SIZEOF_WORD = 2
  // main
main: {
    .label z1 = 5
    .label screen = 3
    .label z2 = 5
    .label y = 2
    // [1] phi from main to main::@1 [phi:main->main::@1]
  __b1_from_main:
    // [1] phi (word*) main::screen#1 = (word*) 1024 [phi:main->main::@1#0] -- pwuz1=pwuc1 
    lda #<$400
    sta.z screen
    lda #>$400
    sta.z screen+1
    // [1] phi (byte) main::y#2 = (byte) 0 [phi:main->main::@1#1] -- vbuz1=vbuc1 
    lda #0
    sta.z y
    jmp __b1
    // [1] phi from main::@3 to main::@1 [phi:main::@3->main::@1]
  __b1_from___b3:
    // [1] phi (word*) main::screen#1 = (word*) main::screen#2 [phi:main::@3->main::@1#0] -- register_copy 
    // [1] phi (byte) main::y#2 = (byte) main::y#1 [phi:main::@3->main::@1#1] -- register_copy 
    jmp __b1
    // main::@1
  __b1:
    // [2] (byte) mul8u::a#1 ← (byte) main::y#2 -- vbuxx=vbuz1 
    ldx.z y
    // [3] call mul8u 
    // [16] phi from main::@1 to mul8u [phi:main::@1->mul8u]
  mul8u_from___b1:
    // [16] phi (byte) mul8u::a#6 = (byte) mul8u::a#1 [phi:main::@1->mul8u#0] -- register_copy 
    jsr mul8u
    // [4] (word) mul8u::return#2 ← (word) mul8u::res#2
    jmp __b2
    // main::@2
  __b2:
    // [5] (word) main::z1#0 ← (word) mul8u::return#2
    // [6] *((word*) main::screen#1) ← (word) main::z1#0 -- _deref_pwuz1=vwuz2 
    ldy #0
    lda.z z1
    sta (screen),y
    iny
    lda.z z1+1
    sta (screen),y
    // [7] (byte) mul8u::a#2 ← (byte) main::y#2 -- vbuxx=vbuz1 
    ldx.z y
    // [8] call mul8u 
    // [16] phi from main::@2 to mul8u [phi:main::@2->mul8u]
  mul8u_from___b2:
    // [16] phi (byte) mul8u::a#6 = (byte) mul8u::a#2 [phi:main::@2->mul8u#0] -- register_copy 
    jsr mul8u
    // [9] (word) mul8u::return#3 ← (word) mul8u::res#2
    jmp __b3
    // main::@3
  __b3:
    // [10] (word) main::z2#0 ← (word) mul8u::return#3
    // [11] *((word*) main::screen#1 + (const byte) SIZEOF_WORD) ← (word) main::z2#0 -- pwuz1_derefidx_vbuc1=vwuz2 
    ldy #SIZEOF_WORD
    lda.z z2
    sta (screen),y
    iny
    lda.z z2+1
    sta (screen),y
    // [12] (word*) main::screen#2 ← (word*) main::screen#1 + (const byte) SIZEOF_WORD+(const byte) SIZEOF_WORD -- pwuz1=pwuz1_plus_vbuc1 
    lda #SIZEOF_WORD+SIZEOF_WORD
    clc
    adc.z screen
    sta.z screen
    bcc !+
    inc.z screen+1
  !:
    // [13] (byte) main::y#1 ← ++ (byte) main::y#2 -- vbuz1=_inc_vbuz1 
    inc.z y
    // [14] if((byte) main::y#1!=(byte) 6) goto main::@1 -- vbuz1_neq_vbuc1_then_la1 
    lda #6
    cmp.z y
    bne __b1_from___b3
    jmp __breturn
    // main::@return
  __breturn:
    // [15] return 
    rts
}
  // mul8u
// Perform binary multiplication of two unsigned 8-bit chars into a 16-bit unsigned int
// mul8u(byte register(X) a)
mul8u: {
    .label mb = 7
    .label res = 5
    .label return = 5
    // [17] phi from mul8u to mul8u::@1 [phi:mul8u->mul8u::@1]
  __b1_from_mul8u:
    // [17] phi (word) mul8u::mb#2 = (word) $28 [phi:mul8u->mul8u::@1#0] -- vwuz1=vwuc1 
    lda #<$28
    sta.z mb
    lda #>$28
    sta.z mb+1
    // [17] phi (word) mul8u::res#2 = (word) 0 [phi:mul8u->mul8u::@1#1] -- vwuz1=vwuc1 
    lda #<0
    sta.z res
    lda #>0
    sta.z res+1
    // [17] phi (byte) mul8u::a#3 = (byte) mul8u::a#6 [phi:mul8u->mul8u::@1#2] -- register_copy 
    jmp __b1
    // mul8u::@1
  __b1:
    // [18] if((byte) mul8u::a#3!=(byte) 0) goto mul8u::@2 -- vbuxx_neq_0_then_la1 
    cpx #0
    bne __b2
    jmp __breturn
    // mul8u::@return
  __breturn:
    // [19] return 
    rts
    // mul8u::@2
  __b2:
    // [20] (byte~) mul8u::$1 ← (byte) mul8u::a#3 & (byte) 1 -- vbuaa=vbuxx_band_vbuc1 
    txa
    and #1
    // [21] if((byte~) mul8u::$1==(byte) 0) goto mul8u::@3 -- vbuaa_eq_0_then_la1 
    cmp #0
    beq __b3_from___b2
    jmp __b4
    // mul8u::@4
  __b4:
    // [22] (word) mul8u::res#1 ← (word) mul8u::res#2 + (word) mul8u::mb#2 -- vwuz1=vwuz1_plus_vwuz2 
    lda.z res
    clc
    adc.z mb
    sta.z res
    lda.z res+1
    adc.z mb+1
    sta.z res+1
    // [23] phi from mul8u::@2 mul8u::@4 to mul8u::@3 [phi:mul8u::@2/mul8u::@4->mul8u::@3]
  __b3_from___b2:
  __b3_from___b4:
    // [23] phi (word) mul8u::res#6 = (word) mul8u::res#2 [phi:mul8u::@2/mul8u::@4->mul8u::@3#0] -- register_copy 
    jmp __b3
    // mul8u::@3
  __b3:
    // [24] (byte) mul8u::a#0 ← (byte) mul8u::a#3 >> (byte) 1 -- vbuxx=vbuxx_ror_1 
    txa
    lsr
    tax
    // [25] (word) mul8u::mb#1 ← (word) mul8u::mb#2 << (byte) 1 -- vwuz1=vwuz1_rol_1 
    asl.z mb
    rol.z mb+1
    // [17] phi from mul8u::@3 to mul8u::@1 [phi:mul8u::@3->mul8u::@1]
  __b1_from___b3:
    // [17] phi (word) mul8u::mb#2 = (word) mul8u::mb#1 [phi:mul8u::@3->mul8u::@1#0] -- register_copy 
    // [17] phi (word) mul8u::res#2 = (word) mul8u::res#6 [phi:mul8u::@3->mul8u::@1#1] -- register_copy 
    // [17] phi (byte) mul8u::a#3 = (byte) mul8u::a#0 [phi:mul8u::@3->mul8u::@1#2] -- register_copy 
    jmp __b1
}
  // File Data

ASSEMBLER OPTIMIZATIONS
Removing instruction jmp __b1
Removing instruction jmp __b2
Removing instruction jmp __b3
Removing instruction jmp __breturn
Removing instruction jmp __b1
Removing instruction jmp __breturn
Removing instruction jmp __b4
Removing instruction jmp __b3
Succesful ASM optimization Pass5NextJumpElimination
Removing instruction lda #>0
Succesful ASM optimization Pass5UnnecesaryLoadElimination
Replacing label __b1_from___b3 with __b1
Replacing label __b3_from___b2 with __b3
Removing instruction __b1_from___b3:
Removing instruction __b3_from___b2:
Removing instruction __b3_from___b4:
Succesful ASM optimization Pass5RedundantLabelElimination
Removing instruction __b1_from_main:
Removing instruction mul8u_from___b1:
Removing instruction __b2:
Removing instruction mul8u_from___b2:
Removing instruction __b3:
Removing instruction __breturn:
Removing instruction __b1_from_mul8u:
Removing instruction __breturn:
Removing instruction __b4:
Removing instruction __b1_from___b3:
Succesful ASM optimization Pass5UnusedLabelElimination
Removing instruction jmp __b1
Succesful ASM optimization Pass5NextJumpElimination

FINAL SYMBOL TABLE
(const byte) SIZEOF_WORD = (byte) 2
(void()) main()
(label) main::@1
(label) main::@2
(label) main::@3
(label) main::@return
(word*) main::screen
(word*) main::screen#1 screen zp[2]:3 4.0
(word*) main::screen#2 screen zp[2]:3 7.333333333333333
(byte) main::y
(byte) main::y#1 y zp[1]:2 16.5
(byte) main::y#2 y zp[1]:2 3.6666666666666665
(word) main::z1
(word) main::z1#0 z1 zp[2]:5 22.0
(word) main::z2
(word) main::z2#0 z2 zp[2]:5 22.0
(word()) mul8u((byte) mul8u::a , (byte) mul8u::b)
(byte~) mul8u::$1 reg byte a 20002.0
(label) mul8u::@1
(label) mul8u::@2
(label) mul8u::@3
(label) mul8u::@4
(label) mul8u::@return
(byte) mul8u::a
(byte) mul8u::a#0 reg byte x 10001.0
(byte) mul8u::a#1 reg byte x 22.0
(byte) mul8u::a#2 reg byte x 22.0
(byte) mul8u::a#3 reg byte x 6684.166666666666
(byte) mul8u::a#6 reg byte x 123.0
(byte) mul8u::b
(word) mul8u::mb
(word) mul8u::mb#1 mb zp[2]:7 20002.0
(word) mul8u::mb#2 mb zp[2]:7 4286.142857142857
(word) mul8u::res
(word) mul8u::res#1 res zp[2]:5 20002.0
(word) mul8u::res#2 res zp[2]:5 4289.285714285714
(word) mul8u::res#6 res zp[2]:5 10001.0
(word) mul8u::return
(word) mul8u::return#2 return zp[2]:5 22.0
(word) mul8u::return#3 return zp[2]:5 22.0

zp[1]:2 [ main::y#2 main::y#1 ]
zp[2]:3 [ main::screen#1 main::screen#2 ]
reg byte x [ mul8u::a#3 mul8u::a#6 mul8u::a#1 mul8u::a#2 mul8u::a#0 ]
zp[2]:5 [ mul8u::res#2 mul8u::res#6 mul8u::res#1 mul8u::return#2 mul8u::return#3 main::z1#0 main::z2#0 ]
zp[2]:7 [ mul8u::mb#2 mul8u::mb#1 ]
reg byte a [ mul8u::$1 ]


FINAL ASSEMBLER
Score: 7974

  // File Comments
// Simple binary multiplication implementation
  // Upstart
.pc = $801 "Basic"
:BasicUpstart(main)
.pc = $80d "Program"
  // Global Constants & labels
  .const SIZEOF_WORD = 2
  // main
main: {
    .label z1 = 5
    .label screen = 3
    .label z2 = 5
    .label y = 2
    // [1] phi from main to main::@1 [phi:main->main::@1]
    // [1] phi (word*) main::screen#1 = (word*) 1024 [phi:main->main::@1#0] -- pwuz1=pwuc1 
    lda #<$400
    sta.z screen
    lda #>$400
    sta.z screen+1
    // [1] phi (byte) main::y#2 = (byte) 0 [phi:main->main::@1#1] -- vbuz1=vbuc1 
    lda #0
    sta.z y
    // [1] phi from main::@3 to main::@1 [phi:main::@3->main::@1]
    // [1] phi (word*) main::screen#1 = (word*) main::screen#2 [phi:main::@3->main::@1#0] -- register_copy 
    // [1] phi (byte) main::y#2 = (byte) main::y#1 [phi:main::@3->main::@1#1] -- register_copy 
    // main::@1
  __b1:
    // mul8u(y,40)
    // [2] (byte) mul8u::a#1 ← (byte) main::y#2 -- vbuxx=vbuz1 
    ldx.z y
    // [3] call mul8u 
    // [16] phi from main::@1 to mul8u [phi:main::@1->mul8u]
    // [16] phi (byte) mul8u::a#6 = (byte) mul8u::a#1 [phi:main::@1->mul8u#0] -- register_copy 
    jsr mul8u
    // mul8u(y,40)
    // [4] (word) mul8u::return#2 ← (word) mul8u::res#2
    // main::@2
    // z1 = mul8u(y,40)
    // [5] (word) main::z1#0 ← (word) mul8u::return#2
    // *screen++ = z1
    // [6] *((word*) main::screen#1) ← (word) main::z1#0 -- _deref_pwuz1=vwuz2 
    ldy #0
    lda.z z1
    sta (screen),y
    iny
    lda.z z1+1
    sta (screen),y
    // mul8u(y,40)
    // [7] (byte) mul8u::a#2 ← (byte) main::y#2 -- vbuxx=vbuz1 
    ldx.z y
    // [8] call mul8u 
    // [16] phi from main::@2 to mul8u [phi:main::@2->mul8u]
    // [16] phi (byte) mul8u::a#6 = (byte) mul8u::a#2 [phi:main::@2->mul8u#0] -- register_copy 
    jsr mul8u
    // mul8u(y,40)
    // [9] (word) mul8u::return#3 ← (word) mul8u::res#2
    // main::@3
    // z2 = mul8u(y,40)
    // [10] (word) main::z2#0 ← (word) mul8u::return#3
    // *screen++ = z2
    // [11] *((word*) main::screen#1 + (const byte) SIZEOF_WORD) ← (word) main::z2#0 -- pwuz1_derefidx_vbuc1=vwuz2 
    ldy #SIZEOF_WORD
    lda.z z2
    sta (screen),y
    iny
    lda.z z2+1
    sta (screen),y
    // *screen++ = z2;
    // [12] (word*) main::screen#2 ← (word*) main::screen#1 + (const byte) SIZEOF_WORD+(const byte) SIZEOF_WORD -- pwuz1=pwuz1_plus_vbuc1 
    lda #SIZEOF_WORD+SIZEOF_WORD
    clc
    adc.z screen
    sta.z screen
    bcc !+
    inc.z screen+1
  !:
    // for( byte y: 0..5)
    // [13] (byte) main::y#1 ← ++ (byte) main::y#2 -- vbuz1=_inc_vbuz1 
    inc.z y
    // [14] if((byte) main::y#1!=(byte) 6) goto main::@1 -- vbuz1_neq_vbuc1_then_la1 
    lda #6
    cmp.z y
    bne __b1
    // main::@return
    // }
    // [15] return 
    rts
}
  // mul8u
// Perform binary multiplication of two unsigned 8-bit chars into a 16-bit unsigned int
// mul8u(byte register(X) a)
mul8u: {
    .label mb = 7
    .label res = 5
    .label return = 5
    // [17] phi from mul8u to mul8u::@1 [phi:mul8u->mul8u::@1]
    // [17] phi (word) mul8u::mb#2 = (word) $28 [phi:mul8u->mul8u::@1#0] -- vwuz1=vwuc1 
    lda #<$28
    sta.z mb
    lda #>$28
    sta.z mb+1
    // [17] phi (word) mul8u::res#2 = (word) 0 [phi:mul8u->mul8u::@1#1] -- vwuz1=vwuc1 
    lda #<0
    sta.z res
    sta.z res+1
    // [17] phi (byte) mul8u::a#3 = (byte) mul8u::a#6 [phi:mul8u->mul8u::@1#2] -- register_copy 
    // mul8u::@1
  __b1:
    // while(a!=0)
    // [18] if((byte) mul8u::a#3!=(byte) 0) goto mul8u::@2 -- vbuxx_neq_0_then_la1 
    cpx #0
    bne __b2
    // mul8u::@return
    // }
    // [19] return 
    rts
    // mul8u::@2
  __b2:
    // a&1
    // [20] (byte~) mul8u::$1 ← (byte) mul8u::a#3 & (byte) 1 -- vbuaa=vbuxx_band_vbuc1 
    txa
    and #1
    // if( (a&1) != 0)
    // [21] if((byte~) mul8u::$1==(byte) 0) goto mul8u::@3 -- vbuaa_eq_0_then_la1 
    cmp #0
    beq __b3
    // mul8u::@4
    // res = res + mb
    // [22] (word) mul8u::res#1 ← (word) mul8u::res#2 + (word) mul8u::mb#2 -- vwuz1=vwuz1_plus_vwuz2 
    lda.z res
    clc
    adc.z mb
    sta.z res
    lda.z res+1
    adc.z mb+1
    sta.z res+1
    // [23] phi from mul8u::@2 mul8u::@4 to mul8u::@3 [phi:mul8u::@2/mul8u::@4->mul8u::@3]
    // [23] phi (word) mul8u::res#6 = (word) mul8u::res#2 [phi:mul8u::@2/mul8u::@4->mul8u::@3#0] -- register_copy 
    // mul8u::@3
  __b3:
    // a = a>>1
    // [24] (byte) mul8u::a#0 ← (byte) mul8u::a#3 >> (byte) 1 -- vbuxx=vbuxx_ror_1 
    txa
    lsr
    tax
    // mb = mb<<1
    // [25] (word) mul8u::mb#1 ← (word) mul8u::mb#2 << (byte) 1 -- vwuz1=vwuz1_rol_1 
    asl.z mb
    rol.z mb+1
    // [17] phi from mul8u::@3 to mul8u::@1 [phi:mul8u::@3->mul8u::@1]
    // [17] phi (word) mul8u::mb#2 = (word) mul8u::mb#1 [phi:mul8u::@3->mul8u::@1#0] -- register_copy 
    // [17] phi (word) mul8u::res#2 = (word) mul8u::res#6 [phi:mul8u::@3->mul8u::@1#1] -- register_copy 
    // [17] phi (byte) mul8u::a#3 = (byte) mul8u::a#0 [phi:mul8u::@3->mul8u::@1#2] -- register_copy 
    jmp __b1
}
  // File Data

