(const byte) CH = (byte) '
'pm
(const byte*) MESSAGE[]  = (byte*) "hello
world"pm
(const byte*) SCREEN = (byte*) 1024
(void()) main()
(byte~) main::$0 reg byte a 22.0
(label) main::@1
(label) main::@2
(label) main::@3
(label) main::@4
(label) main::@5
(label) main::@6
(label) main::@return
(byte*) main::cursor
(byte*) main::cursor#1 cursor zp[2]:6 16.5
(byte*) main::cursor#2 cursor zp[2]:6 22.0
(byte*) main::cursor#3 cursor zp[2]:6 6.6000000000000005
(byte*) main::cursor#6 cursor zp[2]:6 16.5
(byte*) main::line
(byte*) main::line#2 line zp[2]:4 5.5
(byte*) main::line#5 line zp[2]:4 16.5
(byte*) main::line#8 line zp[2]:4 22.0
(byte*) main::msg
(byte*) main::msg#1 msg zp[2]:2 22.0
(byte*) main::msg#2 msg zp[2]:2 6.111111111111112

zp[2]:2 [ main::msg#2 main::msg#1 ]
zp[2]:4 [ main::line#2 main::line#5 main::line#8 ]
zp[2]:6 [ main::cursor#3 main::cursor#6 main::cursor#1 main::cursor#2 ]
reg byte a [ main::$0 ]
