(byte) Point::x
(byte) Point::y
(void()) main()
(label) main::@return
(const nomodify byte*) main::SCREEN = (byte*) 1024
(byte) main::p_x
(byte) main::p_y
(const byte) main::p_y#0 p_y = (const byte) main::y+(byte) 1
(const byte) main::x = (byte) 2
(const byte) main::y = (byte) 3

