Fixing struct type size struct Person to 65
Fixing struct type size struct Person to 65
Fixing struct type size struct Person to 65
Fixing struct type SIZE_OF struct Person to 65
Fixing struct type SIZE_OF struct Person to 65
Inlined call call __init 

CONTROL FLOW GRAPH SSA

(void()) main()
main: scope:[main]  from __start::@1
  (byte) idx#20 ← phi( __start::@1/(byte) idx#22 )
  (byte) print_person::person_id#0 ← *((byte*)&(struct Person) jesper+(const byte) OFFSET_STRUCT_PERSON_ID)
  (byte*) print_person::person_name#0 ← (byte*)&(struct Person) jesper+(const byte) OFFSET_STRUCT_PERSON_NAME
  call print_person 
  to:main::@1
main::@1: scope:[main]  from main
  (byte) idx#11 ← phi( main/(byte) idx#7 )
  (byte) idx#0 ← (byte) idx#11
  (byte) print_person::person_id#1 ← *((byte*)&(struct Person) henriette+(const byte) OFFSET_STRUCT_PERSON_ID)
  (byte*) print_person::person_name#1 ← (byte*)&(struct Person) henriette+(const byte) OFFSET_STRUCT_PERSON_NAME
  call print_person 
  to:main::@2
main::@2: scope:[main]  from main::@1
  (byte) idx#12 ← phi( main::@1/(byte) idx#7 )
  (byte) idx#1 ← (byte) idx#12
  to:main::@return
main::@return: scope:[main]  from main::@2
  (byte) idx#13 ← phi( main::@2/(byte) idx#1 )
  (byte) idx#2 ← (byte) idx#13
  return 
  to:@return

(void()) print_person((byte) print_person::person_id , (byte*) print_person::person_name)
print_person: scope:[print_person]  from main main::@1
  (byte*) print_person::person_name#4 ← phi( main/(byte*) print_person::person_name#0 main::@1/(byte*) print_person::person_name#1 )
  (byte) idx#14 ← phi( main/(byte) idx#20 main::@1/(byte) idx#0 )
  (byte) print_person::person_id#2 ← phi( main/(byte) print_person::person_id#0 main::@1/(byte) print_person::person_id#1 )
  *((const nomodify byte*) SCREEN + (byte) idx#14) ← *((const byte*) DIGIT + (byte) print_person::person_id#2)
  (byte) idx#3 ← ++ (byte) idx#14
  *((const nomodify byte*) SCREEN + (byte) idx#3) ← (byte) ' '
  (byte) idx#4 ← ++ (byte) idx#3
  (byte) print_person::i#0 ← (byte) 0
  to:print_person::@1
print_person::@1: scope:[print_person]  from print_person print_person::@2
  (byte) idx#21 ← phi( print_person/(byte) idx#4 print_person::@2/(byte) idx#5 )
  (byte) print_person::i#2 ← phi( print_person/(byte) print_person::i#0 print_person::@2/(byte) print_person::i#1 )
  (byte*) print_person::person_name#2 ← phi( print_person/(byte*) print_person::person_name#4 print_person::@2/(byte*) print_person::person_name#3 )
  (bool~) print_person::$0 ← (number) 0 != *((byte*) print_person::person_name#2 + (byte) print_person::i#2)
  if((bool~) print_person::$0) goto print_person::@2
  to:print_person::@3
print_person::@2: scope:[print_person]  from print_person::@1
  (byte) idx#15 ← phi( print_person::@1/(byte) idx#21 )
  (byte) print_person::i#3 ← phi( print_person::@1/(byte) print_person::i#2 )
  (byte*) print_person::person_name#3 ← phi( print_person::@1/(byte*) print_person::person_name#2 )
  *((const nomodify byte*) SCREEN + (byte) idx#15) ← *((byte*) print_person::person_name#3 + (byte) print_person::i#3)
  (byte) idx#5 ← ++ (byte) idx#15
  (byte) print_person::i#1 ← ++ (byte) print_person::i#3
  to:print_person::@1
print_person::@3: scope:[print_person]  from print_person::@1
  (byte) idx#16 ← phi( print_person::@1/(byte) idx#21 )
  *((const nomodify byte*) SCREEN + (byte) idx#16) ← (byte) ' '
  (byte) idx#6 ← ++ (byte) idx#16
  to:print_person::@return
print_person::@return: scope:[print_person]  from print_person::@3
  (byte) idx#17 ← phi( print_person::@3/(byte) idx#6 )
  (byte) idx#7 ← (byte) idx#17
  return 
  to:@return

(void()) __start()
__start: scope:[__start]  from
  to:__start::__init1
__start::__init1: scope:[__start]  from __start
  (byte) idx#8 ← (byte) 0
  to:__start::@1
__start::@1: scope:[__start]  from __start::__init1
  (byte) idx#22 ← phi( __start::__init1/(byte) idx#8 )
  call main 
  to:__start::@2
__start::@2: scope:[__start]  from __start::@1
  (byte) idx#18 ← phi( __start::@1/(byte) idx#2 )
  (byte) idx#9 ← (byte) idx#18
  to:__start::@return
__start::@return: scope:[__start]  from __start::@2
  (byte) idx#19 ← phi( __start::@2/(byte) idx#9 )
  (byte) idx#10 ← (byte) idx#19
  return 
  to:@return

SYMBOL TABLE SSA
(const byte*) DIGIT[]  = (byte*) "0123456789"
(const byte) OFFSET_STRUCT_PERSON_ID = (byte) 0
(const byte) OFFSET_STRUCT_PERSON_NAME = (byte) 1
(byte) Person::id
(const byte*) Person::name[(number) $40]  = { fill( $40, 0) }
(const nomodify byte*) SCREEN = (byte*)(number) $400
(void()) __start()
(label) __start::@1
(label) __start::@2
(label) __start::@return
(label) __start::__init1
(struct Person) henriette loadstore = { id: (byte) 7, name: (byte*) "henriette" }
(byte) idx
(byte) idx#0
(byte) idx#1
(byte) idx#10
(byte) idx#11
(byte) idx#12
(byte) idx#13
(byte) idx#14
(byte) idx#15
(byte) idx#16
(byte) idx#17
(byte) idx#18
(byte) idx#19
(byte) idx#2
(byte) idx#20
(byte) idx#21
(byte) idx#22
(byte) idx#3
(byte) idx#4
(byte) idx#5
(byte) idx#6
(byte) idx#7
(byte) idx#8
(byte) idx#9
(struct Person) jesper loadstore = { id: (byte) 4, name: (byte*) "jesper" }
(void()) main()
(label) main::@1
(label) main::@2
(label) main::@return
(void()) print_person((byte) print_person::person_id , (byte*) print_person::person_name)
(bool~) print_person::$0
(label) print_person::@1
(label) print_person::@2
(label) print_person::@3
(label) print_person::@return
(byte) print_person::i
(byte) print_person::i#0
(byte) print_person::i#1
(byte) print_person::i#2
(byte) print_person::i#3
(struct Person) print_person::person
(byte) print_person::person_id
(byte) print_person::person_id#0
(byte) print_person::person_id#1
(byte) print_person::person_id#2
(byte*) print_person::person_name
(byte*) print_person::person_name#0
(byte*) print_person::person_name#1
(byte*) print_person::person_name#2
(byte*) print_person::person_name#3
(byte*) print_person::person_name#4

Adding number conversion cast (unumber) 0 in (bool~) print_person::$0 ← (number) 0 != *((byte*) print_person::person_name#2 + (byte) print_person::i#2)
Successful SSA optimization PassNAddNumberTypeConversions
Simplifying constant pointer cast (byte*) 1024
Simplifying constant integer cast 0
Successful SSA optimization PassNCastSimplification
Finalized unsigned number type (byte) 0
Successful SSA optimization PassNFinalizeNumberTypeConversions
Alias idx#0 = idx#11 
Alias idx#1 = idx#12 idx#13 idx#2 
Alias print_person::person_name#2 = print_person::person_name#3 
Alias print_person::i#2 = print_person::i#3 
Alias idx#15 = idx#21 idx#16 
Alias idx#17 = idx#6 idx#7 
Alias idx#22 = idx#8 
Alias idx#10 = idx#9 idx#18 idx#19 
Successful SSA optimization Pass2AliasElimination
Identical Phi Values (byte) idx#20 (byte) idx#22
Identical Phi Values (byte) idx#0 (byte) idx#17
Identical Phi Values (byte) idx#1 (byte) idx#17
Identical Phi Values (byte*) print_person::person_name#2 (byte*) print_person::person_name#4
Identical Phi Values (byte) idx#10 (byte) idx#1
Successful SSA optimization Pass2IdenticalPhiElimination
Simple Condition (bool~) print_person::$0 [18] if((byte) 0!=*((byte*) print_person::person_name#4 + (byte) print_person::i#2)) goto print_person::@2
Successful SSA optimization Pass2ConditionalJumpSimplification
Constant (const byte*) print_person::person_name#0 = (byte*)&jesper+OFFSET_STRUCT_PERSON_NAME
Constant (const byte*) print_person::person_name#1 = (byte*)&henriette+OFFSET_STRUCT_PERSON_NAME
Constant (const byte) print_person::i#0 = 0
Constant (const byte) idx#22 = 0
Successful SSA optimization Pass2ConstantIdentification
Simplifying expression containing zero (byte*)&jesper in [1] (byte) print_person::person_id#0 ← *((byte*)&(struct Person) jesper+(const byte) OFFSET_STRUCT_PERSON_ID)
Simplifying expression containing zero (byte*)&henriette in [5] (byte) print_person::person_id#1 ← *((byte*)&(struct Person) henriette+(const byte) OFFSET_STRUCT_PERSON_ID)
Successful SSA optimization PassNSimplifyExpressionWithZero
Eliminating unused constant (const byte) OFFSET_STRUCT_PERSON_ID
Successful SSA optimization PassNEliminateUnusedVars
Removing unused procedure __start
Removing unused procedure block __start
Removing unused procedure block __start::__init1
Removing unused procedure block __start::@1
Removing unused procedure block __start::@2
Removing unused procedure block __start::@return
Successful SSA optimization PassNEliminateEmptyStart
Inlining constant with var siblings (const byte*) print_person::person_name#0
Inlining constant with var siblings (const byte*) print_person::person_name#1
Inlining constant with var siblings (const byte) print_person::i#0
Inlining constant with var siblings (const byte) idx#22
Constant inlined print_person::person_name#1 = (byte*)&(struct Person) henriette+(const byte) OFFSET_STRUCT_PERSON_NAME
Constant inlined idx#22 = (byte) 0
Constant inlined print_person::i#0 = (byte) 0
Constant inlined print_person::person_name#0 = (byte*)&(struct Person) jesper+(const byte) OFFSET_STRUCT_PERSON_NAME
Successful SSA optimization Pass2ConstantInlining
Adding NOP phi() at start of main::@2
CALL GRAPH
Calls in [main] to print_person:2 print_person:6 

Created 5 initial phi equivalence classes
Coalesced [1] print_person::person_id#3 ← print_person::person_id#0
Coalesced [4] print_person::person_id#4 ← print_person::person_id#1
Coalesced [5] idx#23 ← idx#17
Coalesced [14] idx#24 ← idx#4
Coalesced [23] print_person::i#4 ← print_person::i#1
Coalesced [24] idx#25 ← idx#5
Coalesced down to 5 phi equivalence classes
Culled Empty Block (label) main::@2

FINAL CONTROL FLOW GRAPH

(void()) main()
main: scope:[main]  from
  [0] (byte) print_person::person_id#0 ← *((byte*)&(struct Person) jesper)
  [1] call print_person 
  to:main::@1
main::@1: scope:[main]  from main
  [2] (byte) print_person::person_id#1 ← *((byte*)&(struct Person) henriette)
  [3] call print_person 
  to:main::@return
main::@return: scope:[main]  from main::@1
  [4] return 
  to:@return

(void()) print_person((byte) print_person::person_id , (byte*) print_person::person_name)
print_person: scope:[print_person]  from main main::@1
  [5] (byte*) print_person::person_name#4 ← phi( main/(byte*)&(struct Person) jesper+(const byte) OFFSET_STRUCT_PERSON_NAME main::@1/(byte*)&(struct Person) henriette+(const byte) OFFSET_STRUCT_PERSON_NAME )
  [5] (byte) idx#14 ← phi( main/(byte) 0 main::@1/(byte) idx#17 )
  [5] (byte) print_person::person_id#2 ← phi( main/(byte) print_person::person_id#0 main::@1/(byte) print_person::person_id#1 )
  [6] *((const nomodify byte*) SCREEN + (byte) idx#14) ← *((const byte*) DIGIT + (byte) print_person::person_id#2)
  [7] (byte) idx#3 ← ++ (byte) idx#14
  [8] *((const nomodify byte*) SCREEN + (byte) idx#3) ← (byte) ' '
  [9] (byte) idx#4 ← ++ (byte) idx#3
  to:print_person::@1
print_person::@1: scope:[print_person]  from print_person print_person::@2
  [10] (byte) idx#15 ← phi( print_person/(byte) idx#4 print_person::@2/(byte) idx#5 )
  [10] (byte) print_person::i#2 ← phi( print_person/(byte) 0 print_person::@2/(byte) print_person::i#1 )
  [11] if((byte) 0!=*((byte*) print_person::person_name#4 + (byte) print_person::i#2)) goto print_person::@2
  to:print_person::@3
print_person::@3: scope:[print_person]  from print_person::@1
  [12] *((const nomodify byte*) SCREEN + (byte) idx#15) ← (byte) ' '
  [13] (byte) idx#17 ← ++ (byte) idx#15
  to:print_person::@return
print_person::@return: scope:[print_person]  from print_person::@3
  [14] return 
  to:@return
print_person::@2: scope:[print_person]  from print_person::@1
  [15] *((const nomodify byte*) SCREEN + (byte) idx#15) ← *((byte*) print_person::person_name#4 + (byte) print_person::i#2)
  [16] (byte) idx#5 ← ++ (byte) idx#15
  [17] (byte) print_person::i#1 ← ++ (byte) print_person::i#2
  to:print_person::@1


VARIABLE REGISTER WEIGHTS
(byte) Person::id
(struct Person) henriette loadstore = { id: (byte) 7, name: (byte*) "henriette" }
(byte) idx
(byte) idx#14 12.0
(byte) idx#15 84.0
(byte) idx#17 3.25
(byte) idx#3 16.5
(byte) idx#4 22.0
(byte) idx#5 101.0
(struct Person) jesper loadstore = { id: (byte) 4, name: (byte*) "jesper" }
(void()) main()
(void()) print_person((byte) print_person::person_id , (byte*) print_person::person_name)
(byte) print_person::i
(byte) print_person::i#1 202.0
(byte) print_person::i#2 101.0
(struct Person) print_person::person
(byte) print_person::person_id
(byte) print_person::person_id#0 4.0
(byte) print_person::person_id#1 4.0
(byte) print_person::person_id#2 15.0
(byte*) print_person::person_name
(byte*) print_person::person_name#4 20.2

Initial phi equivalence classes
[ print_person::person_id#2 print_person::person_id#0 print_person::person_id#1 ]
[ idx#14 idx#17 ]
[ print_person::person_name#4 ]
[ print_person::i#2 print_person::i#1 ]
[ idx#15 idx#4 idx#5 ]
Added variable idx#3 to live range equivalence class [ idx#3 ]
Added variable jesper to live range equivalence class [ jesper ]
Added variable henriette to live range equivalence class [ henriette ]
Complete equivalence classes
[ print_person::person_id#2 print_person::person_id#0 print_person::person_id#1 ]
[ idx#14 idx#17 ]
[ print_person::person_name#4 ]
[ print_person::i#2 print_person::i#1 ]
[ idx#15 idx#4 idx#5 ]
[ idx#3 ]
[ jesper ]
[ henriette ]
Allocated zp[1]:2 [ print_person::person_id#2 print_person::person_id#0 print_person::person_id#1 ]
Allocated zp[1]:3 [ idx#14 idx#17 ]
Allocated zp[2]:4 [ print_person::person_name#4 ]
Allocated zp[1]:6 [ print_person::i#2 print_person::i#1 ]
Allocated zp[1]:7 [ idx#15 idx#4 idx#5 ]
Allocated zp[1]:8 [ idx#3 ]
Allocated mem[65] [ jesper ]
Allocated mem[65] [ henriette ]

INITIAL ASM
Target platform is c64basic / MOS6502X
  // File Comments
// Example of a struct containing an array
  // Upstart
.pc = $801 "Basic"
:BasicUpstart(main)
.pc = $80d "Program"
  // Global Constants & labels
  .const OFFSET_STRUCT_PERSON_NAME = 1
  .label SCREEN = $400
  .label idx = 8
  .label idx_1 = 7
  .label idx_2 = 3
  // main
main: {
    // [0] (byte) print_person::person_id#0 ← *((byte*)&(struct Person) jesper) -- vbuz1=_deref_pbuc1 
    lda jesper
    sta.z print_person.person_id
    // [1] call print_person 
    // [5] phi from main to print_person [phi:main->print_person]
  print_person_from_main:
    // [5] phi (byte*) print_person::person_name#4 = (byte*)&(struct Person) jesper+(const byte) OFFSET_STRUCT_PERSON_NAME [phi:main->print_person#0] -- pbuz1=pbuc1 
    lda #<jesper+OFFSET_STRUCT_PERSON_NAME
    sta.z print_person.person_name
    lda #>jesper+OFFSET_STRUCT_PERSON_NAME
    sta.z print_person.person_name+1
    // [5] phi (byte) idx#14 = (byte) 0 [phi:main->print_person#1] -- vbuz1=vbuc1 
    lda #0
    sta.z idx_2
    // [5] phi (byte) print_person::person_id#2 = (byte) print_person::person_id#0 [phi:main->print_person#2] -- register_copy 
    jsr print_person
    jmp __b1
    // main::@1
  __b1:
    // [2] (byte) print_person::person_id#1 ← *((byte*)&(struct Person) henriette) -- vbuz1=_deref_pbuc1 
    lda henriette
    sta.z print_person.person_id
    // [3] call print_person 
    // [5] phi from main::@1 to print_person [phi:main::@1->print_person]
  print_person_from___b1:
    // [5] phi (byte*) print_person::person_name#4 = (byte*)&(struct Person) henriette+(const byte) OFFSET_STRUCT_PERSON_NAME [phi:main::@1->print_person#0] -- pbuz1=pbuc1 
    lda #<henriette+OFFSET_STRUCT_PERSON_NAME
    sta.z print_person.person_name
    lda #>henriette+OFFSET_STRUCT_PERSON_NAME
    sta.z print_person.person_name+1
    // [5] phi (byte) idx#14 = (byte) idx#17 [phi:main::@1->print_person#1] -- register_copy 
    // [5] phi (byte) print_person::person_id#2 = (byte) print_person::person_id#1 [phi:main::@1->print_person#2] -- register_copy 
    jsr print_person
    jmp __breturn
    // main::@return
  __breturn:
    // [4] return 
    rts
}
  // print_person
// print_person(byte zp(2) person_id, byte* zp(4) person_name)
print_person: {
    .label person_id = 2
    .label i = 6
    .label person_name = 4
    // [6] *((const nomodify byte*) SCREEN + (byte) idx#14) ← *((const byte*) DIGIT + (byte) print_person::person_id#2) -- pbuc1_derefidx_vbuz1=pbuc2_derefidx_vbuz2 
    ldy.z person_id
    lda DIGIT,y
    ldy.z idx_2
    sta SCREEN,y
    // [7] (byte) idx#3 ← ++ (byte) idx#14 -- vbuz1=_inc_vbuz2 
    ldy.z idx_2
    iny
    sty.z idx
    // [8] *((const nomodify byte*) SCREEN + (byte) idx#3) ← (byte) ' ' -- pbuc1_derefidx_vbuz1=vbuc2 
    lda #' '
    ldy.z idx
    sta SCREEN,y
    // [9] (byte) idx#4 ← ++ (byte) idx#3 -- vbuz1=_inc_vbuz2 
    ldy.z idx
    iny
    sty.z idx_1
    // [10] phi from print_person to print_person::@1 [phi:print_person->print_person::@1]
  __b1_from_print_person:
    // [10] phi (byte) idx#15 = (byte) idx#4 [phi:print_person->print_person::@1#0] -- register_copy 
    // [10] phi (byte) print_person::i#2 = (byte) 0 [phi:print_person->print_person::@1#1] -- vbuz1=vbuc1 
    lda #0
    sta.z i
    jmp __b1
    // print_person::@1
  __b1:
    // [11] if((byte) 0!=*((byte*) print_person::person_name#4 + (byte) print_person::i#2)) goto print_person::@2 -- vbuc1_neq_pbuz1_derefidx_vbuz2_then_la1 
    ldy.z i
    lda (person_name),y
    cmp #0
    bne __b2
    jmp __b3
    // print_person::@3
  __b3:
    // [12] *((const nomodify byte*) SCREEN + (byte) idx#15) ← (byte) ' ' -- pbuc1_derefidx_vbuz1=vbuc2 
    lda #' '
    ldy.z idx_1
    sta SCREEN,y
    // [13] (byte) idx#17 ← ++ (byte) idx#15 -- vbuz1=_inc_vbuz2 
    ldy.z idx_1
    iny
    sty.z idx_2
    jmp __breturn
    // print_person::@return
  __breturn:
    // [14] return 
    rts
    // print_person::@2
  __b2:
    // [15] *((const nomodify byte*) SCREEN + (byte) idx#15) ← *((byte*) print_person::person_name#4 + (byte) print_person::i#2) -- pbuc1_derefidx_vbuz1=pbuz2_derefidx_vbuz3 
    ldx.z idx_1
    ldy.z i
    lda (person_name),y
    sta SCREEN,x
    // [16] (byte) idx#5 ← ++ (byte) idx#15 -- vbuz1=_inc_vbuz1 
    inc.z idx_1
    // [17] (byte) print_person::i#1 ← ++ (byte) print_person::i#2 -- vbuz1=_inc_vbuz1 
    inc.z i
    // [10] phi from print_person::@2 to print_person::@1 [phi:print_person::@2->print_person::@1]
  __b1_from___b2:
    // [10] phi (byte) idx#15 = (byte) idx#5 [phi:print_person::@2->print_person::@1#0] -- register_copy 
    // [10] phi (byte) print_person::i#2 = (byte) print_person::i#1 [phi:print_person::@2->print_person::@1#1] -- register_copy 
    jmp __b1
}
  // File Data
  DIGIT: .text "0123456789"
  .byte 0
  jesper: .byte 4
  .text "jesper"
  .byte 0
  .fill $39, 0
  henriette: .byte 7
  .text "henriette"
  .byte 0
  .fill $36, 0

REGISTER UPLIFT POTENTIAL REGISTERS
Statement [6] *((const nomodify byte*) SCREEN + (byte) idx#14) ← *((const byte*) DIGIT + (byte) print_person::person_id#2) [ henriette idx#14 print_person::person_name#4 ] ( print_person:1 [ henriette idx#14 print_person::person_name#4 ] { { print_person::person_id#0 = print_person::person_id#2 } }  print_person:3 [ henriette idx#14 print_person::person_name#4 ] { { print_person::person_id#1 = print_person::person_id#2 } { idx#14 = idx#17 } }  ) always clobbers reg byte a 
Removing always clobbered register reg byte a as potential for zp[1]:3 [ idx#14 idx#17 ]
Statement [8] *((const nomodify byte*) SCREEN + (byte) idx#3) ← (byte) ' ' [ henriette print_person::person_name#4 idx#3 ] ( print_person:1 [ henriette print_person::person_name#4 idx#3 ] { { print_person::person_id#0 = print_person::person_id#2 } }  print_person:3 [ henriette print_person::person_name#4 idx#3 ] { { print_person::person_id#1 = print_person::person_id#2 } { idx#14 = idx#17 } }  ) always clobbers reg byte a 
Removing always clobbered register reg byte a as potential for zp[1]:8 [ idx#3 ]
Statement [11] if((byte) 0!=*((byte*) print_person::person_name#4 + (byte) print_person::i#2)) goto print_person::@2 [ henriette print_person::person_name#4 print_person::i#2 idx#15 ] ( print_person:1 [ henriette print_person::person_name#4 print_person::i#2 idx#15 ] { { print_person::person_id#0 = print_person::person_id#2 } }  print_person:3 [ henriette print_person::person_name#4 print_person::i#2 idx#15 ] { { print_person::person_id#1 = print_person::person_id#2 } { idx#14 = idx#17 } }  ) always clobbers reg byte a 
Removing always clobbered register reg byte a as potential for zp[1]:6 [ print_person::i#2 print_person::i#1 ]
Removing always clobbered register reg byte a as potential for zp[1]:7 [ idx#15 idx#4 idx#5 ]
Statement [12] *((const nomodify byte*) SCREEN + (byte) idx#15) ← (byte) ' ' [ henriette idx#15 ] ( print_person:1 [ henriette idx#15 ] { { print_person::person_id#0 = print_person::person_id#2 } }  print_person:3 [ henriette idx#15 ] { { print_person::person_id#1 = print_person::person_id#2 } { idx#14 = idx#17 } }  ) always clobbers reg byte a 
Statement [15] *((const nomodify byte*) SCREEN + (byte) idx#15) ← *((byte*) print_person::person_name#4 + (byte) print_person::i#2) [ henriette print_person::person_name#4 print_person::i#2 idx#15 ] ( print_person:1 [ henriette print_person::person_name#4 print_person::i#2 idx#15 ] { { print_person::person_id#0 = print_person::person_id#2 } }  print_person:3 [ henriette print_person::person_name#4 print_person::i#2 idx#15 ] { { print_person::person_id#1 = print_person::person_id#2 } { idx#14 = idx#17 } }  ) always clobbers reg byte a 
Statement [6] *((const nomodify byte*) SCREEN + (byte) idx#14) ← *((const byte*) DIGIT + (byte) print_person::person_id#2) [ henriette idx#14 print_person::person_name#4 ] ( print_person:1 [ henriette idx#14 print_person::person_name#4 ] { { print_person::person_id#0 = print_person::person_id#2 } }  print_person:3 [ henriette idx#14 print_person::person_name#4 ] { { print_person::person_id#1 = print_person::person_id#2 } { idx#14 = idx#17 } }  ) always clobbers reg byte a 
Statement [8] *((const nomodify byte*) SCREEN + (byte) idx#3) ← (byte) ' ' [ henriette print_person::person_name#4 idx#3 ] ( print_person:1 [ henriette print_person::person_name#4 idx#3 ] { { print_person::person_id#0 = print_person::person_id#2 } }  print_person:3 [ henriette print_person::person_name#4 idx#3 ] { { print_person::person_id#1 = print_person::person_id#2 } { idx#14 = idx#17 } }  ) always clobbers reg byte a 
Statement [11] if((byte) 0!=*((byte*) print_person::person_name#4 + (byte) print_person::i#2)) goto print_person::@2 [ henriette print_person::person_name#4 print_person::i#2 idx#15 ] ( print_person:1 [ henriette print_person::person_name#4 print_person::i#2 idx#15 ] { { print_person::person_id#0 = print_person::person_id#2 } }  print_person:3 [ henriette print_person::person_name#4 print_person::i#2 idx#15 ] { { print_person::person_id#1 = print_person::person_id#2 } { idx#14 = idx#17 } }  ) always clobbers reg byte a 
Statement [12] *((const nomodify byte*) SCREEN + (byte) idx#15) ← (byte) ' ' [ henriette idx#15 ] ( print_person:1 [ henriette idx#15 ] { { print_person::person_id#0 = print_person::person_id#2 } }  print_person:3 [ henriette idx#15 ] { { print_person::person_id#1 = print_person::person_id#2 } { idx#14 = idx#17 } }  ) always clobbers reg byte a 
Statement [15] *((const nomodify byte*) SCREEN + (byte) idx#15) ← *((byte*) print_person::person_name#4 + (byte) print_person::i#2) [ henriette print_person::person_name#4 print_person::i#2 idx#15 ] ( print_person:1 [ henriette print_person::person_name#4 print_person::i#2 idx#15 ] { { print_person::person_id#0 = print_person::person_id#2 } }  print_person:3 [ henriette print_person::person_name#4 print_person::i#2 idx#15 ] { { print_person::person_id#1 = print_person::person_id#2 } { idx#14 = idx#17 } }  ) always clobbers reg byte a 
Potential registers zp[1]:2 [ print_person::person_id#2 print_person::person_id#0 print_person::person_id#1 ] : zp[1]:2 , reg byte a , reg byte x , reg byte y , 
Potential registers zp[1]:3 [ idx#14 idx#17 ] : zp[1]:3 , reg byte x , reg byte y , 
Potential registers zp[2]:4 [ print_person::person_name#4 ] : zp[2]:4 , 
Potential registers zp[1]:6 [ print_person::i#2 print_person::i#1 ] : zp[1]:6 , reg byte x , reg byte y , 
Potential registers zp[1]:7 [ idx#15 idx#4 idx#5 ] : zp[1]:7 , reg byte x , reg byte y , 
Potential registers zp[1]:8 [ idx#3 ] : zp[1]:8 , reg byte x , reg byte y , 
Potential registers mem[65] [ jesper ] : mem[65] , 
Potential registers mem[65] [ henriette ] : mem[65] , 

REGISTER UPLIFT SCOPES
Uplift Scope [print_person] 303: zp[1]:6 [ print_person::i#2 print_person::i#1 ] 23: zp[1]:2 [ print_person::person_id#2 print_person::person_id#0 print_person::person_id#1 ] 20.2: zp[2]:4 [ print_person::person_name#4 ] 
Uplift Scope [] 207: zp[1]:7 [ idx#15 idx#4 idx#5 ] 16.5: zp[1]:8 [ idx#3 ] 15.25: zp[1]:3 [ idx#14 idx#17 ] 0: mem[65] [ jesper ] 0: mem[65] [ henriette ] 
Uplift Scope [Person] 
Uplift Scope [main] 

Uplifting [print_person] best 537 combination reg byte y [ print_person::i#2 print_person::i#1 ] reg byte x [ print_person::person_id#2 print_person::person_id#0 print_person::person_id#1 ] zp[2]:4 [ print_person::person_name#4 ] 
Uplifting [] best 455 combination reg byte x [ idx#15 idx#4 idx#5 ] reg byte x [ idx#3 ] reg byte y [ idx#14 idx#17 ] mem[65] [ jesper ] mem[65] [ henriette ] 
Uplifting [Person] best 455 combination 
Uplifting [main] best 455 combination 
Allocated (was zp[2]:4) zp[2]:2 [ print_person::person_name#4 ]

ASSEMBLER BEFORE OPTIMIZATION
  // File Comments
// Example of a struct containing an array
  // Upstart
.pc = $801 "Basic"
:BasicUpstart(main)
.pc = $80d "Program"
  // Global Constants & labels
  .const OFFSET_STRUCT_PERSON_NAME = 1
  .label SCREEN = $400
  // main
main: {
    // [0] (byte) print_person::person_id#0 ← *((byte*)&(struct Person) jesper) -- vbuxx=_deref_pbuc1 
    ldx jesper
    // [1] call print_person 
    // [5] phi from main to print_person [phi:main->print_person]
  print_person_from_main:
    // [5] phi (byte*) print_person::person_name#4 = (byte*)&(struct Person) jesper+(const byte) OFFSET_STRUCT_PERSON_NAME [phi:main->print_person#0] -- pbuz1=pbuc1 
    lda #<jesper+OFFSET_STRUCT_PERSON_NAME
    sta.z print_person.person_name
    lda #>jesper+OFFSET_STRUCT_PERSON_NAME
    sta.z print_person.person_name+1
    // [5] phi (byte) idx#14 = (byte) 0 [phi:main->print_person#1] -- vbuyy=vbuc1 
    ldy #0
    // [5] phi (byte) print_person::person_id#2 = (byte) print_person::person_id#0 [phi:main->print_person#2] -- register_copy 
    jsr print_person
    jmp __b1
    // main::@1
  __b1:
    // [2] (byte) print_person::person_id#1 ← *((byte*)&(struct Person) henriette) -- vbuxx=_deref_pbuc1 
    ldx henriette
    // [3] call print_person 
    // [5] phi from main::@1 to print_person [phi:main::@1->print_person]
  print_person_from___b1:
    // [5] phi (byte*) print_person::person_name#4 = (byte*)&(struct Person) henriette+(const byte) OFFSET_STRUCT_PERSON_NAME [phi:main::@1->print_person#0] -- pbuz1=pbuc1 
    lda #<henriette+OFFSET_STRUCT_PERSON_NAME
    sta.z print_person.person_name
    lda #>henriette+OFFSET_STRUCT_PERSON_NAME
    sta.z print_person.person_name+1
    // [5] phi (byte) idx#14 = (byte) idx#17 [phi:main::@1->print_person#1] -- register_copy 
    // [5] phi (byte) print_person::person_id#2 = (byte) print_person::person_id#1 [phi:main::@1->print_person#2] -- register_copy 
    jsr print_person
    jmp __breturn
    // main::@return
  __breturn:
    // [4] return 
    rts
}
  // print_person
// print_person(byte register(X) person_id, byte* zp(2) person_name)
print_person: {
    .label person_name = 2
    // [6] *((const nomodify byte*) SCREEN + (byte) idx#14) ← *((const byte*) DIGIT + (byte) print_person::person_id#2) -- pbuc1_derefidx_vbuyy=pbuc2_derefidx_vbuxx 
    lda DIGIT,x
    sta SCREEN,y
    // [7] (byte) idx#3 ← ++ (byte) idx#14 -- vbuxx=_inc_vbuyy 
    tya
    tax
    inx
    // [8] *((const nomodify byte*) SCREEN + (byte) idx#3) ← (byte) ' ' -- pbuc1_derefidx_vbuxx=vbuc2 
    lda #' '
    sta SCREEN,x
    // [9] (byte) idx#4 ← ++ (byte) idx#3 -- vbuxx=_inc_vbuxx 
    inx
    // [10] phi from print_person to print_person::@1 [phi:print_person->print_person::@1]
  __b1_from_print_person:
    // [10] phi (byte) idx#15 = (byte) idx#4 [phi:print_person->print_person::@1#0] -- register_copy 
    // [10] phi (byte) print_person::i#2 = (byte) 0 [phi:print_person->print_person::@1#1] -- vbuyy=vbuc1 
    ldy #0
    jmp __b1
    // print_person::@1
  __b1:
    // [11] if((byte) 0!=*((byte*) print_person::person_name#4 + (byte) print_person::i#2)) goto print_person::@2 -- vbuc1_neq_pbuz1_derefidx_vbuyy_then_la1 
    lda (person_name),y
    cmp #0
    bne __b2
    jmp __b3
    // print_person::@3
  __b3:
    // [12] *((const nomodify byte*) SCREEN + (byte) idx#15) ← (byte) ' ' -- pbuc1_derefidx_vbuxx=vbuc2 
    lda #' '
    sta SCREEN,x
    // [13] (byte) idx#17 ← ++ (byte) idx#15 -- vbuyy=_inc_vbuxx 
    txa
    tay
    iny
    jmp __breturn
    // print_person::@return
  __breturn:
    // [14] return 
    rts
    // print_person::@2
  __b2:
    // [15] *((const nomodify byte*) SCREEN + (byte) idx#15) ← *((byte*) print_person::person_name#4 + (byte) print_person::i#2) -- pbuc1_derefidx_vbuxx=pbuz1_derefidx_vbuyy 
    lda (person_name),y
    sta SCREEN,x
    // [16] (byte) idx#5 ← ++ (byte) idx#15 -- vbuxx=_inc_vbuxx 
    inx
    // [17] (byte) print_person::i#1 ← ++ (byte) print_person::i#2 -- vbuyy=_inc_vbuyy 
    iny
    // [10] phi from print_person::@2 to print_person::@1 [phi:print_person::@2->print_person::@1]
  __b1_from___b2:
    // [10] phi (byte) idx#15 = (byte) idx#5 [phi:print_person::@2->print_person::@1#0] -- register_copy 
    // [10] phi (byte) print_person::i#2 = (byte) print_person::i#1 [phi:print_person::@2->print_person::@1#1] -- register_copy 
    jmp __b1
}
  // File Data
  DIGIT: .text "0123456789"
  .byte 0
  jesper: .byte 4
  .text "jesper"
  .byte 0
  .fill $39, 0
  henriette: .byte 7
  .text "henriette"
  .byte 0
  .fill $36, 0

ASSEMBLER OPTIMIZATIONS
Removing instruction jmp __b1
Removing instruction jmp __breturn
Removing instruction jmp __b1
Removing instruction jmp __b3
Removing instruction jmp __breturn
Succesful ASM optimization Pass5NextJumpElimination
Removing instruction print_person_from_main:
Removing instruction __b1:
Removing instruction print_person_from___b1:
Removing instruction __breturn:
Removing instruction __b1_from_print_person:
Removing instruction __b3:
Removing instruction __breturn:
Removing instruction __b1_from___b2:
Succesful ASM optimization Pass5UnusedLabelElimination

FINAL SYMBOL TABLE
(const byte*) DIGIT[]  = (byte*) "0123456789"
(const byte) OFFSET_STRUCT_PERSON_NAME = (byte) 1
(byte) Person::id
(const byte*) Person::name[(number) $40]  = { fill( $40, 0) }
(const nomodify byte*) SCREEN = (byte*) 1024
(struct Person) henriette loadstore mem[65] = { id: (byte) 7, name: (byte*) "henriette" }
(byte) idx
(byte) idx#14 reg byte y 12.0
(byte) idx#15 reg byte x 84.0
(byte) idx#17 reg byte y 3.25
(byte) idx#3 reg byte x 16.5
(byte) idx#4 reg byte x 22.0
(byte) idx#5 reg byte x 101.0
(struct Person) jesper loadstore mem[65] = { id: (byte) 4, name: (byte*) "jesper" }
(void()) main()
(label) main::@1
(label) main::@return
(void()) print_person((byte) print_person::person_id , (byte*) print_person::person_name)
(label) print_person::@1
(label) print_person::@2
(label) print_person::@3
(label) print_person::@return
(byte) print_person::i
(byte) print_person::i#1 reg byte y 202.0
(byte) print_person::i#2 reg byte y 101.0
(struct Person) print_person::person
(byte) print_person::person_id
(byte) print_person::person_id#0 reg byte x 4.0
(byte) print_person::person_id#1 reg byte x 4.0
(byte) print_person::person_id#2 reg byte x 15.0
(byte*) print_person::person_name
(byte*) print_person::person_name#4 person_name zp[2]:2 20.2

reg byte x [ print_person::person_id#2 print_person::person_id#0 print_person::person_id#1 ]
reg byte y [ idx#14 idx#17 ]
zp[2]:2 [ print_person::person_name#4 ]
reg byte y [ print_person::i#2 print_person::i#1 ]
reg byte x [ idx#15 idx#4 idx#5 ]
reg byte x [ idx#3 ]
mem[65] [ jesper ]
mem[65] [ henriette ]


FINAL ASSEMBLER
Score: 386

  // File Comments
// Example of a struct containing an array
  // Upstart
.pc = $801 "Basic"
:BasicUpstart(main)
.pc = $80d "Program"
  // Global Constants & labels
  .const OFFSET_STRUCT_PERSON_NAME = 1
  .label SCREEN = $400
  // main
main: {
    // print_person(jesper)
    // [0] (byte) print_person::person_id#0 ← *((byte*)&(struct Person) jesper) -- vbuxx=_deref_pbuc1 
    ldx jesper
    // [1] call print_person 
    // [5] phi from main to print_person [phi:main->print_person]
    // [5] phi (byte*) print_person::person_name#4 = (byte*)&(struct Person) jesper+(const byte) OFFSET_STRUCT_PERSON_NAME [phi:main->print_person#0] -- pbuz1=pbuc1 
    lda #<jesper+OFFSET_STRUCT_PERSON_NAME
    sta.z print_person.person_name
    lda #>jesper+OFFSET_STRUCT_PERSON_NAME
    sta.z print_person.person_name+1
    // [5] phi (byte) idx#14 = (byte) 0 [phi:main->print_person#1] -- vbuyy=vbuc1 
    ldy #0
    // [5] phi (byte) print_person::person_id#2 = (byte) print_person::person_id#0 [phi:main->print_person#2] -- register_copy 
    jsr print_person
    // main::@1
    // print_person(henriette)
    // [2] (byte) print_person::person_id#1 ← *((byte*)&(struct Person) henriette) -- vbuxx=_deref_pbuc1 
    ldx henriette
    // [3] call print_person 
    // [5] phi from main::@1 to print_person [phi:main::@1->print_person]
    // [5] phi (byte*) print_person::person_name#4 = (byte*)&(struct Person) henriette+(const byte) OFFSET_STRUCT_PERSON_NAME [phi:main::@1->print_person#0] -- pbuz1=pbuc1 
    lda #<henriette+OFFSET_STRUCT_PERSON_NAME
    sta.z print_person.person_name
    lda #>henriette+OFFSET_STRUCT_PERSON_NAME
    sta.z print_person.person_name+1
    // [5] phi (byte) idx#14 = (byte) idx#17 [phi:main::@1->print_person#1] -- register_copy 
    // [5] phi (byte) print_person::person_id#2 = (byte) print_person::person_id#1 [phi:main::@1->print_person#2] -- register_copy 
    jsr print_person
    // main::@return
    // }
    // [4] return 
    rts
}
  // print_person
// print_person(byte register(X) person_id, byte* zp(2) person_name)
print_person: {
    .label person_name = 2
    // SCREEN[idx++] = DIGIT[person.id]
    // [6] *((const nomodify byte*) SCREEN + (byte) idx#14) ← *((const byte*) DIGIT + (byte) print_person::person_id#2) -- pbuc1_derefidx_vbuyy=pbuc2_derefidx_vbuxx 
    lda DIGIT,x
    sta SCREEN,y
    // SCREEN[idx++] = DIGIT[person.id];
    // [7] (byte) idx#3 ← ++ (byte) idx#14 -- vbuxx=_inc_vbuyy 
    tya
    tax
    inx
    // SCREEN[idx++] = ' '
    // [8] *((const nomodify byte*) SCREEN + (byte) idx#3) ← (byte) ' ' -- pbuc1_derefidx_vbuxx=vbuc2 
    lda #' '
    sta SCREEN,x
    // SCREEN[idx++] = ' ';
    // [9] (byte) idx#4 ← ++ (byte) idx#3 -- vbuxx=_inc_vbuxx 
    inx
    // [10] phi from print_person to print_person::@1 [phi:print_person->print_person::@1]
    // [10] phi (byte) idx#15 = (byte) idx#4 [phi:print_person->print_person::@1#0] -- register_copy 
    // [10] phi (byte) print_person::i#2 = (byte) 0 [phi:print_person->print_person::@1#1] -- vbuyy=vbuc1 
    ldy #0
    // print_person::@1
  __b1:
    // for(byte i=0; person.name[i]; i++)
    // [11] if((byte) 0!=*((byte*) print_person::person_name#4 + (byte) print_person::i#2)) goto print_person::@2 -- vbuc1_neq_pbuz1_derefidx_vbuyy_then_la1 
    lda (person_name),y
    cmp #0
    bne __b2
    // print_person::@3
    // SCREEN[idx++] = ' '
    // [12] *((const nomodify byte*) SCREEN + (byte) idx#15) ← (byte) ' ' -- pbuc1_derefidx_vbuxx=vbuc2 
    lda #' '
    sta SCREEN,x
    // SCREEN[idx++] = ' ';
    // [13] (byte) idx#17 ← ++ (byte) idx#15 -- vbuyy=_inc_vbuxx 
    txa
    tay
    iny
    // print_person::@return
    // }
    // [14] return 
    rts
    // print_person::@2
  __b2:
    // SCREEN[idx++] = person.name[i]
    // [15] *((const nomodify byte*) SCREEN + (byte) idx#15) ← *((byte*) print_person::person_name#4 + (byte) print_person::i#2) -- pbuc1_derefidx_vbuxx=pbuz1_derefidx_vbuyy 
    lda (person_name),y
    sta SCREEN,x
    // SCREEN[idx++] = person.name[i];
    // [16] (byte) idx#5 ← ++ (byte) idx#15 -- vbuxx=_inc_vbuxx 
    inx
    // for(byte i=0; person.name[i]; i++)
    // [17] (byte) print_person::i#1 ← ++ (byte) print_person::i#2 -- vbuyy=_inc_vbuyy 
    iny
    // [10] phi from print_person::@2 to print_person::@1 [phi:print_person::@2->print_person::@1]
    // [10] phi (byte) idx#15 = (byte) idx#5 [phi:print_person::@2->print_person::@1#0] -- register_copy 
    // [10] phi (byte) print_person::i#2 = (byte) print_person::i#1 [phi:print_person::@2->print_person::@1#1] -- register_copy 
    jmp __b1
}
  // File Data
  DIGIT: .text "0123456789"
  .byte 0
  jesper: .byte 4
  .text "jesper"
  .byte 0
  .fill $39, 0
  henriette: .byte 7
  .text "henriette"
  .byte 0
  .fill $36, 0

