(const byte) OFFSET_STRUCT_POINT_INITIALS = (byte) 1
(const byte*) Point::initials[(number) 2]  = { fill( 2, 0) }
(byte) Point::x
(const nomodify byte*) SCREEN = (byte*) 1024
(void()) main()
(label) main::@return
(struct Point) point1 loadstore mem[3] = { x: (byte) 2, initials: (byte*) "jg" }

mem[3] [ point1 ]
