(void()) main()
(byte~) main::$1 reg byte a 22.0
(byte~) main::$2 reg byte a 22.0
(byte~) main::$3 zp[1]:4 6.6000000000000005
(byte~) main::$4 reg byte a 22.0
(byte~) main::$5 reg byte a 22.0
(label) main::@1
(label) main::@return
(byte) main::i
(byte) main::i#1 reg byte x 16.5
(byte) main::i#2 reg byte x 5.5
(byte*) main::screen
(byte*) main::screen#1 screen zp[2]:2 8.25
(byte*) main::screen#2 screen zp[2]:2 7.333333333333333
(byte*) main::screen#3 screen zp[2]:2 6.6000000000000005

reg byte x [ main::i#2 main::i#1 ]
zp[2]:2 [ main::screen#3 main::screen#2 main::screen#1 ]
zp[1]:4 [ main::$3 ]
reg byte a [ main::$1 ]
reg byte a [ main::$2 ]
reg byte a [ main::$4 ]
reg byte a [ main::$5 ]
