(const byte) RADIX::BINARY = (number) 2
(const byte) RADIX::DECIMAL = (number) $a
(const byte) RADIX::HEXADECIMAL = (number) $10
(const byte) RADIX::OCTAL = (number) 8
(void()) main()
(label) main::@1
(label) main::@2
(label) main::@3
(label) main::@4
(label) main::@5
(label) main::@6
(label) main::@return
(byte) main::i
(byte) main::i#1 i zp[1]:4 11.0
(byte) main::i#2 i zp[1]:4 2.0
(signed word) main::w1
(signed word) main::w1#1 w1 zp[2]:2 2.75
(signed word) main::w1#2 w1 zp[2]:2 22.0
(signed word) main::w2
(signed word) main::w2#0 w2 zp[2]:11 5.5
(void*()) memset((void*) memset::str , (byte) memset::c , (word) memset::num)
(label) memset::@1
(label) memset::@2
(label) memset::@return
(byte) memset::c
(const byte) memset::c#0 c = (byte) ' '
(byte*) memset::dst
(byte*) memset::dst#1 dst zp[2]:9 2002.0
(byte*) memset::dst#2 dst zp[2]:9 1334.6666666666667
(byte*) memset::end
(const byte*) memset::end#0 end = (byte*)(const void*) memset::str#0+(const word) memset::num#0
(word) memset::num
(const word) memset::num#0 num = (word) $3e8
(void*) memset::return
(void*) memset::str
(const void*) memset::str#0 str = (void*)(const byte*) print_screen#0
(void()) print_char((byte) print_char::ch)
(label) print_char::@return
(byte) print_char::ch
(byte) print_char::ch#2 reg byte a 20002.0
(byte) print_char::ch#3 reg byte a 20002.0
(byte) print_char::ch#5 reg byte a 120003.0
(byte*) print_char_cursor
(byte*) print_char_cursor#12 print_char_cursor zp[2]:5 4063.3125
(byte*) print_char_cursor#37 print_char_cursor zp[2]:5 110108.5
(byte*) print_char_cursor#49 print_char_cursor zp[2]:5 56.0
(byte*) print_char_cursor#55 print_char_cursor zp[2]:5 5.5
(byte*) print_char_cursor#65 print_char_cursor zp[2]:5 22.0
(void()) print_cls()
(label) print_cls::@return
(const to_nomodify byte*) print_hextab[]  = (byte*) "0123456789abcdef"z
(byte*) print_line_cursor
(byte*) print_line_cursor#0 print_line_cursor zp[2]:7 4289.285714285714
(byte*) print_line_cursor#10 print_line_cursor zp[2]:7 20103.0
(byte*) print_line_cursor#21 print_line_cursor zp[2]:7 10.181818181818182
(void()) print_ln()
(label) print_ln::@1
(label) print_ln::@return
(byte*) print_screen
(const byte*) print_screen#0 print_screen = (byte*) 1024
(void()) print_sint((signed word) print_sint::w)
(label) print_sint::@1
(label) print_sint::@2
(label) print_sint::@3
(label) print_sint::@4
(label) print_sint::@return
(signed word) print_sint::w
(signed word) print_sint::w#0 w zp[2]:9 202.0
(signed word) print_sint::w#1 w zp[2]:9 22.0
(signed word) print_sint::w#2 w zp[2]:9 22.0
(signed word) print_sint::w#3 w zp[2]:9 54.16666666666666
(signed word) print_sint::w#5 w zp[2]:9 202.0
(void()) print_uchar((byte) print_uchar::b)
(byte~) print_uchar::$0 reg byte a 20002.0
(byte~) print_uchar::$2 reg byte x 20002.0
(label) print_uchar::@1
(label) print_uchar::@return
(byte) print_uchar::b
(byte) print_uchar::b#0 reg byte x 2002.0
(byte) print_uchar::b#1 reg byte x 2002.0
(byte) print_uchar::b#2 reg byte x 5501.0
(void()) print_uint((word) print_uint::w)
(label) print_uint::@1
(label) print_uint::@return
(word) print_uint::w
(word) print_uint::w#0 w zp[2]:9 701.0

zp[2]:2 [ main::w1#2 main::w1#1 ]
zp[1]:4 [ main::i#2 main::i#1 ]
reg byte a [ print_char::ch#5 print_char::ch#2 print_char::ch#3 ]
zp[2]:5 [ print_char_cursor#37 print_char_cursor#49 print_char_cursor#55 print_char_cursor#65 print_char_cursor#12 ]
zp[2]:7 [ print_line_cursor#10 print_line_cursor#21 print_line_cursor#0 ]
zp[2]:9 [ memset::dst#2 memset::dst#1 print_sint::w#5 print_sint::w#0 print_sint::w#3 print_sint::w#1 print_sint::w#2 print_uint::w#0 ]
reg byte x [ print_uchar::b#2 print_uchar::b#0 print_uchar::b#1 ]
zp[2]:11 [ main::w2#0 ]
reg byte a [ print_uchar::$0 ]
reg byte x [ print_uchar::$2 ]
