(void()) main()
(byte~) main::$0 reg byte x 11.0
(byte~) main::$2 reg byte a 22.0
(label) main::@1
(label) main::@return
(byte) main::b
(byte) main::b#1 b zp[1]:2 16.5
(byte) main::b#2 b zp[1]:2 11.0
(const nomodify word*) main::screen = (word*) 1024

zp[1]:2 [ main::b#2 main::b#1 ]
reg byte x [ main::$0 ]
reg byte a [ main::$2 ]
