(void()) main()
(label) main::@1
(label) main::@2_1
(label) main::@2_10
(label) main::@2_100
(label) main::@2_101
(label) main::@2_102
(label) main::@2_103
(label) main::@2_104
(label) main::@2_105
(label) main::@2_106
(label) main::@2_107
(label) main::@2_108
(label) main::@2_109
(label) main::@2_11
(label) main::@2_110
(label) main::@2_111
(label) main::@2_112
(label) main::@2_113
(label) main::@2_114
(label) main::@2_115
(label) main::@2_116
(label) main::@2_117
(label) main::@2_118
(label) main::@2_119
(label) main::@2_12
(label) main::@2_120
(label) main::@2_13
(label) main::@2_14
(label) main::@2_15
(label) main::@2_16
(label) main::@2_17
(label) main::@2_18
(label) main::@2_19
(label) main::@2_2
(label) main::@2_20
(label) main::@2_21
(label) main::@2_22
(label) main::@2_23
(label) main::@2_24
(label) main::@2_25
(label) main::@2_26
(label) main::@2_27
(label) main::@2_28
(label) main::@2_29
(label) main::@2_3
(label) main::@2_30
(label) main::@2_31
(label) main::@2_32
(label) main::@2_33
(label) main::@2_34
(label) main::@2_35
(label) main::@2_36
(label) main::@2_37
(label) main::@2_38
(label) main::@2_39
(label) main::@2_4
(label) main::@2_40
(label) main::@2_41
(label) main::@2_42
(label) main::@2_43
(label) main::@2_44
(label) main::@2_45
(label) main::@2_46
(label) main::@2_47
(label) main::@2_48
(label) main::@2_49
(label) main::@2_5
(label) main::@2_50
(label) main::@2_51
(label) main::@2_52
(label) main::@2_53
(label) main::@2_54
(label) main::@2_55
(label) main::@2_56
(label) main::@2_57
(label) main::@2_58
(label) main::@2_59
(label) main::@2_6
(label) main::@2_60
(label) main::@2_61
(label) main::@2_62
(label) main::@2_63
(label) main::@2_64
(label) main::@2_65
(label) main::@2_66
(label) main::@2_67
(label) main::@2_68
(label) main::@2_69
(label) main::@2_7
(label) main::@2_70
(label) main::@2_71
(label) main::@2_72
(label) main::@2_73
(label) main::@2_74
(label) main::@2_75
(label) main::@2_76
(label) main::@2_77
(label) main::@2_78
(label) main::@2_79
(label) main::@2_8
(label) main::@2_80
(label) main::@2_81
(label) main::@2_82
(label) main::@2_83
(label) main::@2_84
(label) main::@2_85
(label) main::@2_86
(label) main::@2_87
(label) main::@2_88
(label) main::@2_89
(label) main::@2_9
(label) main::@2_90
(label) main::@2_91
(label) main::@2_92
(label) main::@2_93
(label) main::@2_94
(label) main::@2_95
(label) main::@2_96
(label) main::@2_97
(label) main::@2_98
(label) main::@2_99
(label) main::@return
(const byte*) main::SCREEN = (byte*) 1024
(byte) main::line
(byte) main::x

