(byte) MOS6522_VIA::AUX_CONTROL
(byte) MOS6522_VIA::INTERRUPT_ENABLE
(byte) MOS6522_VIA::INTERRUPT_FLAG
(byte) MOS6522_VIA::PERIPHERAL_CONTROL
(byte) MOS6522_VIA::PORT_A
(byte) MOS6522_VIA::PORT_A_DDR
(byte) MOS6522_VIA::PORT_A_OUTPUT
(byte) MOS6522_VIA::PORT_B
(byte) MOS6522_VIA::PORT_B_DDR
(byte) MOS6522_VIA::SHIFT
(byte) MOS6522_VIA::TIMER1_HIGH
(byte) MOS6522_VIA::TIMER1_LATCH_HIGH
(byte) MOS6522_VIA::TIMER1_LATCH_LOW
(byte) MOS6522_VIA::TIMER1_LOW
(byte) MOS6522_VIA::TIMER2_HIGH
(byte) MOS6522_VIA::TIMER2_LOW
(byte) MOS6561_VIC::BORDER_BACKGROUND_COLOR
(byte) MOS6561_VIC::CH1_FREQ
(byte) MOS6561_VIC::CH2_FREQ
(byte) MOS6561_VIC::CH3_FREQ
(byte) MOS6561_VIC::CH4_FREQ
(byte) MOS6561_VIC::LIGHTPEN_X
(byte) MOS6561_VIC::LIGHTPEN_Y
(byte) MOS6561_VIC::MATRIX_COLUMNS
(byte) MOS6561_VIC::MATRIX_ROWS
(byte) MOS6561_VIC::MEMORY
(byte) MOS6561_VIC::ORIGIN_X
(byte) MOS6561_VIC::ORIGIN_Y
(byte) MOS6561_VIC::PADDLE_X
(byte) MOS6561_VIC::PADDLE_Y
(byte) MOS6561_VIC::RASTER
(byte) MOS6561_VIC::VOLUME_COLOR
(const byte) OFFSET_STRUCT_MOS6561_VIC_BORDER_BACKGROUND_COLOR = (byte) $f
(const byte) OFFSET_STRUCT_MOS6561_VIC_RASTER = (byte) 4
(const nomodify struct MOS6561_VIC*) VIC = (struct MOS6561_VIC*) 36864
(void()) main()
(label) main::@1

